# uv,model,feather,feather_ratio,feather_ratio_err,smclean,smclean_ratio,smclean_ratio_err,int,int_ratio,int_ratio_err,joint,joint_ratio,joint_ratio_err,tp2vis,tp2vis_ratio,tp2vis_ratio_err,
0.000000000000000000e+00,9.707145690917968750e+01,9.643271636962890625e+01,9.934198933456990233e-01,1.033569439930538160e-02,8.821678924560546875e+01,9.087819638695783242e-01,1.079399282742009476e-02,6.339998626708984375e+01,6.531269673474360271e-01,1.246327670776353758e-02,9.730799102783203125e+01,1.002436195887738135e+00,1.028915119487391894e-02,5.767081451416015625e+01,5.838181713010450746e-01,1.292471657294245492e-02
4.604125136414334634e+02,6.308846473693847656e+01,6.836946916580200195e+01,1.083707924275600254e+00,1.521399234434724600e-02,6.120938205718994141e+01,9.702151147981838974e-01,1.609038331382001141e-02,7.231671094894409180e+01,1.146274699352486381e+00,1.477048414042655619e-02,6.789674425125122070e+01,1.076214572725620267e+00,1.526889772657203520e-02,7.256385517120361328e+01,1.130273277168300172e+00,1.474357387587852362e-02
9.208250272828669267e+02,2.208610993623733521e+01,2.370324975252151489e+01,1.073219766674750275e+00,4.367826965903159192e-02,1.997219577431678772e+01,9.042876193216722314e-01,4.755303301478736033e-02,2.411162611842155457e+01,1.091709956530683368e+00,4.329216474230897921e-02,2.362422740459442139e+01,1.069641506931297670e+00,4.375377302405165231e-02,2.835957580804824829e+01,1.261808857893847557e+00,3.964660149805887546e-02
1.381237540924300447e+03,1.441159453392028844e+01,1.477460398674011266e+01,1.025188708436489460e+00,6.852553951430964685e-02,1.485482449531555105e+01,1.030755095166745239e+00,6.833770807429803695e-02,1.490855848789215088e+01,1.034483620310172380e+00,6.821246800833950796e-02,1.476440274715423584e+01,1.024479925869925978e+00,6.854946937698094822e-02,1.642580695152282644e+01,1.120025086981924600e+00,6.485630771918657334e-02
1.841650054565733853e+03,1.157682263851165771e+01,1.128946876525878906e+01,9.751785198559618228e-01,8.746499223176251725e-02,1.139719096819559674e+01,9.844835084785271695e-01,8.705488010227785400e-02,1.123322953780492206e+01,9.703206042421577138e-01,8.768064117260447599e-02,1.126953154802322388e+01,9.734565623554706226e-01,8.754133084553643307e-02,1.129051077365875244e+01,9.583789816950388785e-01,8.746100666619763264e-02
2.302062568207167260e+03,6.683952891826629994e+00,6.720725953578948975e+00,1.005501693735347368e+00,1.492016349713216061e-01,6.639720726013183416e+00,9.933823342968897130e-01,1.501087505867817196e-01,6.712091743946075439e+00,1.004209911795436838e+00,1.492978005357800675e-01,6.699156630039214910e+00,1.002275739461302884e+00,1.494421832345201873e-01,6.978058964014053345e+00,1.025921958476699425e+00,1.463913237013459712e-01
2.762475081848600894e+03,5.316566358009974458e+00,5.141655974917942018e+00,9.671008746409209822e-01,1.912370894719804260e-01,5.138899412420061097e+00,9.665823891538117829e-01,1.912875087455563061e-01,5.170899045136239991e+00,9.726012424063378292e-01,1.907038472231817883e-01,5.158763089113765687e+00,9.703209543799620196e-01,1.909250236630843367e-01,5.352274331781599059e+00,9.892822051284574369e-01,1.874617925369989058e-01
3.222887595490034073e+03,3.989675422509511460e+00,3.969480540603399277e+00,9.949382143238585385e-01,2.512829261380347123e-01,3.960394269476334106e+00,9.926607681246513160e-01,2.515701217080048568e-01,3.966737214475870132e+00,9.942506079807332808e-01,2.513695670713457786e-01,3.955807874600092422e+00,9.915139284411987886e-01,2.517156878915302043e-01,4.048695719490448930e+00,9.972192284406351526e-01,2.488066257043210772e-01
3.683300109131467707e+03,2.944358011441571499e+00,2.832885063120297087e+00,9.621401514733948224e-01,3.461858838528574789e-01,2.898978860782725597e+00,9.845877605635912078e-01,3.422701863222699092e-01,2.825875764446599270e+00,9.597595650615318164e-01,3.466064075873865891e-01,2.837995861257825769e+00,9.638775499301641680e-01,3.458802025035230820e-01,3.053954230887549137e+00,1.019259995648005068e+00,3.334271240310437978e-01
4.143712622772901341e+03,2.359570092388561857e+00,2.275900456522192083e+00,9.645403049749320390e-01,4.314556589017616295e-01,2.387956528791359556e+00,1.012030342516361703e+00,4.212719926787755753e-01,2.272445491382053984e+00,9.630760699639515643e-01,4.317774765282488825e-01,2.276258497365883482e+00,9.646936228637111865e-01,4.314227024086152440e-01,2.307358012667724001e+00,9.609375701086914079e-01,4.285474202684077527e-01
4.604125136414334520e+03,1.648770559031297100e+00,1.707480378887232586e+00,1.035608241264587726e+00,5.959029992079062366e-01,1.699767289792790237e+00,1.030930156098526673e+00,5.972756141019411880e-01,1.715647447635145761e+00,1.040561670777977010e+00,5.944564545894980290e-01,1.710403688690241619e+00,1.037379091834614853e+00,5.953838138668438029e-01,1.760472605333608831e+00,1.049257587338281672e+00,5.866404663958817434e-01
5.064537650055767699e+03,1.263679515104740858e+00,1.257442664704285562e+00,9.950645315320012507e-01,7.932975307652478936e-01,1.300534161273390055e+00,1.029164551397823812e+00,7.799662011104064874e-01,1.257348374696448445e+00,9.949899160882038629e-01,7.933272012146291852e-01,1.266753365285694599e+00,1.002429779658826847e+00,7.903775583067979005e-01,1.283732920885086060e+00,9.982763998818519058e-01,7.851104013405966198e-01
5.524950163697201788e+03,1.262760309875011533e+00,1.205870675668120340e+00,9.549481926522365161e-01,8.101656390576226219e-01,1.154755746945738792e+00,9.144694665451094107e-01,8.272954358905805217e-01,1.211639353260397955e+00,9.595165003090148081e-01,8.082768639992946591e-01,1.214435199648141950e+00,9.617303112714037372e-01,8.073645156714922555e-01,1.232877362333238080e+00,9.594271988489964098e-01,8.013983849788228753e-01
5.985362677338634967e+03,1.194529081816258609e+00,1.173016771026279548e+00,9.819909693975219511e-01,8.447566063393227020e-01,1.164713119035181821e+00,9.750395672780589607e-01,8.477298342994240565e-01,1.168385810826135796e+00,9.781141611467738528e-01,8.464122030918536099e-01,1.168132599281228146e+00,9.779030596472000347e-01,8.465033114953031124e-01,1.158949676415194530e+00,9.534126764484396332e-01,8.498058429483856813e-01
6.445775190980068146e+03,1.116602283733134859e+00,1.150553345680236816e+00,1.030405689153342408e+00,8.821626420580140904e-01,1.173743088475682539e+00,1.051173820414829319e+00,8.732307468856510546e-01,1.155793456191366309e+00,1.035098596007885341e+00,8.801283882297934458e-01,1.152109233154491985e+00,1.031797562318468087e+00,8.815570196948581128e-01,1.152941977097229564e+00,1.014663436180599287e+00,8.812341907217331460e-01
6.906187704621502235e+03,9.964557893884679052e-01,9.801920281412700442e-01,9.836783915348827900e-01,1.011814032961848353e+00,1.010791468434035778e+00,1.014386668428476579e+00,9.963894543662917824e-01,9.767466096673160791e-01,9.802207183388964573e-01,1.013580766452057302e+00,9.803227894784262153e-01,9.838095197954632720e-01,1.011747068377503833e+00,9.744150424376130104e-01,9.609460719191826872e-01,1.014779846402683816e+00
7.366600218262935414e+03,8.746672258324300619e-01,8.365207595828300091e-01,9.563874521383882721e-01,1.168778659648345375e+00,8.502890642266720533e-01,9.721286440308118948e-01,1.159449669261749305e+00,8.396439120794335631e-01,9.599581272527223375e-01,1.166649364733243877e+00,8.430790207348763943e-01,9.638856415956966739e-01,1.164316457973483709e+00,8.240726263805603358e-01,9.258394997468885057e-01,1.177343309744897315e+00
7.827012731904368593e+03,7.447896498287546185e-01,7.211924879329985050e-01,9.683170115197201611e-01,1.364273102981718555e+00,7.210449176230306900e-01,9.681188746229443254e-01,1.364410448770362105e+00,7.219283442045080212e-01,9.693050170212449412e-01,1.363588643581230553e+00,7.245452463755319705e-01,9.728169084567400704e-01,1.361158878410210216e+00,7.235836891521667535e-01,9.547028228523330995e-01,1.362051425823379347e+00
8.287425245545802682e+03,3.814944884429375405e-01,6.095693954577048324e-01,1.597845877002445292e+00,2.018033380581253144e+00,5.972987985238432662e-01,1.565681331234186180e+00,2.043332363054792822e+00,6.092527619873483458e-01,1.597015895233511396e+00,2.018678325003063101e+00,6.084272191549341402e-01,1.594848809003314161e+00,2.020360301046768559e+00,6.015525080884496223e-01,1.549524133858341202e+00,2.034490728375002000e+00
8.747837759187235861e+03,2.437295472870270319e-01,5.073892688068251111e-01,2.081771678709518181e+00,2.662694579268934714e+00,4.995883741881698148e-01,2.049765322871714535e+00,2.690638745842126589e+00,5.092377260948220963e-01,2.089355729591211741e+00,2.656157937671413727e+00,5.080373758760591274e-01,2.084425233630027297e+00,2.660396762554472438e+00,5.047398283456762114e-01,2.035037726239961486e+00,2.672120016011799049e+00
9.208250272828669040e+03,1.319421623503008179e-01,4.058385393432071275e-01,3.075882129820815880e+00,3.718988044200664866e+00,4.030957992879613538e-01,3.055094687759923211e+00,3.738052518509322741e+00,4.071305585244009428e-01,3.085674444560690510e+00,3.710074582803580601e+00,4.069539080824582933e-01,3.084326215828618878e+00,3.711288013011209141e+00,4.002053078804765907e-01,2.980659165885229278e+00,3.758356680964125118e+00
9.668662786470102219e+03,7.933182300378878449e-02,3.546964747882965785e-01,4.471049086712109322e+00,4.607994479102073271e+00,3.487904480943042618e-01,4.396601954774775223e+00,4.671562623617290022e+00,3.555419568567433353e-01,4.481706626605102883e+00,4.599035611301784954e+00,3.554047299807684412e-01,4.479961306085344930e+00,4.600484436675524869e+00,3.466537857505803122e-01,4.293995490700807771e+00,4.694994288300560648e+00
1.012907530011153540e+04,4.333466806394212223e-02,2.644289185991510749e-01,6.102017862672330928e+00,6.498494580482605087e+00,2.639030027956537627e-01,6.089881717941253214e+00,6.509618414969619238e+00,2.649284082273131169e-01,6.113544191371216741e+00,6.487964838547014779e+00,2.659364143413874837e-01,6.136785281410332082e+00,6.466815733308520997e+00,2.647377529099364524e-01,6.003347387820853420e+00,6.491980014561510970e+00
1.058948781375297040e+04,1.334086954593658413e-02,2.059855566626148660e-01,1.544018970827540826e+01,9.118828198560327891e+00,2.028500580628003480e-01,1.520516015574001756e+01,9.251082004789797253e+00,2.066494843789509483e-01,1.548995615820957106e+01,9.091307706531853938e+00,2.068158989240016232e-01,1.550236266172234600e+01,9.084433287379081179e+00,2.023725006197180099e-01,1.490666293801503173e+01,9.271562529777932937e+00
1.104990032739440358e+04,5.189435213412109220e-03,1.557764947340872785e-01,3.001800549151909792e+01,1.242498956550817546e+01,1.514422746565143862e-01,2.918280476170343718e+01,1.276880653132678844e+01,1.569725148330785858e-01,3.024847760453443968e+01,1.233334946592967007e+01,1.566640351543595044e-01,3.018884378760066056e+01,1.235685335556484965e+01,1.580461777354541519e-01,2.992795026970304662e+01,1.225222832119668759e+01
1.151031284103583675e+04,0.000000000000000000e+00,1.186835858804572846e-01,inf,1.685152993282893874e+01,1.180846970611517943e-01,inf,1.693699564613585906e+01,1.199780095512757022e-01,inf,1.666972145545762274e+01,1.190491442213810619e-01,inf,1.679978477023611205e+01,1.240274964421544113e-01,inf,1.612545651062775676e+01
1.197072535467726993e+04,0.000000000000000000e+00,9.219291828445751180e-02,inf,2.169364021897084527e+01,8.866588130000639667e-02,inf,2.255659077286874847e+01,9.323327387259765231e-02,inf,2.145156891876370508e+01,9.383275767851789739e-02,inf,2.131451797305410167e+01,9.647719454634087755e-02,inf,2.073028770586130776e+01
1.243113786831870311e+04,0.000000000000000000e+00,6.920698705049822819e-02,inf,2.889881622126767269e+01,6.747501041234765795e-02,inf,2.964060305849183052e+01,6.881696823416505460e-02,inf,2.906259969481007488e+01,7.045963020688604528e-02,inf,2.838504820600859802e+01,7.802142454424827733e-02,inf,2.563398466104320406e+01
1.289155038196013629e+04,0.000000000000000000e+00,5.526555163253631109e-02,inf,3.618890865865430584e+01,4.799413911227713714e-02,inf,4.167175486409318808e+01,5.662583909829014411e-02,inf,3.531956491679416388e+01,5.728698441193306318e-02,inf,3.491194414456547435e+01,6.561549735765549729e-02,inf,3.048060413378328093e+01
1.335196289560157129e+04,0.000000000000000000e+00,4.464857471612049267e-02,inf,4.479426303563268164e+01,4.185621718594726565e-02,inf,4.778262667920876083e+01,4.491166639733516069e-02,inf,4.453185910106132894e+01,4.310348184177806991e-02,inf,4.639996386699088049e+01,5.304156847220534848e-02,inf,3.770627561754763946e+01
1.381237540924300447e+04,0.000000000000000000e+00,4.394168981123081769e-02,inf,4.551486318782467322e+01,3.757603603484545307e-02,inf,5.322541201912134312e+01,4.515705807406970168e-02,inf,4.428986486939567158e+01,4.380901209252113793e-02,inf,4.565270715934337176e+01,5.331119706983024342e-02,inf,3.751557102310567871e+01
1.427278792288443765e+04,0.000000000000000000e+00,3.581504099174008526e-02,inf,5.584246016809680668e+01,3.431037102591989740e-02,inf,5.829141277688581368e+01,3.579174603622119893e-02,inf,5.587880507354971371e+01,3.584791183395562297e-02,inf,5.579125526931176182e+01,4.093790246686414280e-02,inf,4.885448153135923377e+01
1.473320043652587083e+04,0.000000000000000000e+00,2.998244649161169520e-02,inf,6.670569730057044922e+01,2.515306968258761156e-02,inf,7.951315784667482944e+01,3.065932249907735163e-02,inf,6.523301354947381014e+01,2.923210677212168679e-02,inf,6.841792196474105481e+01,3.411530720978885739e-02,inf,5.862471024227303928e+01
1.519361295016730401e+04,0.000000000000000000e+00,1.641624575768219074e-02,inf,1.218305347959398404e+02,1.722084516086397343e-02,inf,1.161383184923578682e+02,1.642062196424376452e-02,inf,1.217980661362913253e+02,1.412640554917743430e-02,inf,1.415788321408100785e+02,1.788813451912574237e-02,inf,1.118059570639760096e+02
1.565402546380873719e+04,0.000000000000000000e+00,1.252576250643018703e-02,inf,1.596709181555443138e+02,1.291920741336540293e-02,inf,1.548082584331702378e+02,1.250210943098570629e-02,inf,1.599730038391060134e+02,1.011299244806474623e-02,inf,1.977654003274496972e+02,1.251204621099356179e-02,inf,1.598459569500889188e+02
1.611443797745017037e+04,0.000000000000000000e+00,8.369762729368327228e-03,inf,2.389553998923147162e+02,9.570797489903356409e-03,inf,2.089690020199346634e+02,8.379178273441669628e-03,inf,2.386868896606634110e+02,8.671915514804865929e-03,inf,2.306295531345479901e+02,1.016930633202372571e-02,inf,1.966702481664738400e+02
1.657485049109160536e+04,0.000000000000000000e+00,7.301774388748605814e-03,inf,2.739060252370745161e+02,8.072520196551720775e-03,inf,2.477541029695194084e+02,7.291905057133155413e-03,inf,2.742767472052507287e+02,6.241649064695989173e-03,inf,3.204281399466045741e+02,8.268014302302617580e-03,inf,2.418960498705240525e+02
1.703526300473303854e+04,0.000000000000000000e+00,4.382485481073672418e-03,inf,4.563620367111898872e+02,4.674930637065699557e-03,inf,4.278138341011481316e+02,4.344514269405408413e-03,inf,4.603506573989732829e+02,3.223020843051926931e-03,inf,6.205358566983916262e+02,5.482357471919385716e-03,inf,3.648065654682301329e+02
1.749567551837447172e+04,0.000000000000000000e+00,2.509002653823699802e-03,inf,7.971294876679448862e+02,2.208209209664560493e-03,inf,9.057112846222624967e+02,2.492487280131386231e-03,inf,8.024113165763374127e+02,2.012048688330276679e-03,inf,9.940117312269040895e+02,4.688310992017196907e-03,inf,4.265928611402713955e+02
1.795608803201590490e+04,0.000000000000000000e+00,1.625341280638773920e-03,inf,1.230510800300341771e+03,1.171848606342488662e-03,inf,1.706705106082169777e+03,1.582954506375244819e-03,inf,1.263460189124281214e+03,1.517308226842336129e-03,inf,1.318123743494221799e+03,4.021766382114340573e-03,inf,4.972939275872486746e+02
1.841650054565733808e+04,0.000000000000000000e+00,1.299862489759107120e-03,inf,1.538624289689783836e+03,1.478130790928844362e-03,inf,1.353060238156068408e+03,1.279422015613818076e-03,inf,1.563205866080455053e+03,1.498539817475830205e-03,inf,1.334632538072187572e+03,4.069514503498794511e-03,inf,4.914591158921992928e+02
1.887691305929877126e+04,0.000000000000000000e+00,1.054321321248608001e-03,inf,1.896954903303527090e+03,1.067118042556103319e-03,inf,1.874206901430823564e+03,1.020254267959072418e-03,inf,1.960295646692879245e+03,7.757653924768833330e-04,inf,2.578099022456195598e+03,3.749028192198073164e-03,inf,5.334715818254197757e+02
1.933732557294020444e+04,0.000000000000000000e+00,9.469912110944278538e-04,inf,2.111952018740090352e+03,7.919976578705245629e-04,inf,2.525259993037705499e+03,8.849292134982533753e-04,inf,2.260067776600695652e+03,8.657787020638352260e-04,inf,2.310059135472400158e+03,3.634607448475435376e-03,inf,5.502657517633481348e+02
1.979773808658163762e+04,0.000000000000000000e+00,4.761795604281360500e-04,inf,4.200096279230858272e+03,9.123635274590924816e-04,inf,2.192108671386662536e+03,4.310078764319769215e-04,inf,4.640286429465394576e+03,6.457239396695513278e-04,inf,3.097298825599525117e+03,3.936724446248263121e-03,inf,5.080365738846719523e+02
2.025815060022307080e+04,0.000000000000000000e+00,2.866012728190980852e-04,inf,6.978336070623086016e+03,7.583711558254435658e-04,inf,2.637231103315255496e+03,2.122771657013799995e-04,inf,9.421644543782404071e+03,2.633129770401865244e-04,inf,7.595523860925252848e+03,3.816364798694849014e-03,inf,5.240589161402956506e+02
2.071856311386450761e+04,0.000000000000000000e+00,5.103740841150283813e-04,inf,3.918694272002335765e+03,8.002743124961853027e-04,inf,2.499143067283611344e+03,4.302002489566802979e-04,inf,4.648997774525679233e+03,6.958805024623870850e-04,inf,2.874056670538921480e+03,3.687344491481781006e-03,inf,5.423957551620809454e+02
