# uv,model,feather,feather_ratio,feather_ratio_err,smclean,smclean_ratio,smclean_ratio_err,int,int_ratio,int_ratio_err,joint,joint_ratio,joint_ratio_err,tp2vis,tp2vis_ratio,tp2vis_ratio_err,
0.000000000000000000e+00,2.282476171875000000e+04,2.260803906250000000e+04,9.905049323659764759e-01,4.402105891797440570e-05,1.404076269531250000e+04,6.151548422859699494e-01,5.425122880490185017e-05,1.295399414062500000e+04,5.675412650631792566e-01,5.589909296625097750e-05,2.044943750000000000e+04,8.959320248885213056e-01,4.621691530073265348e-05,1.821551269531250000e+03,7.842367847730162544e-02,8.114804031544002203e-05
2.302062568207167317e+02,1.044589636230468750e+04,1.028420397949218750e+04,9.845209662048739485e-01,9.647806653243825713e-05,8.702200561523437500e+03,8.330736070603195209e-01,1.044490221642431537e-04,8.359113159179687500e+03,8.002293790071079993e-01,1.063546390505698455e-04,1.115218096923828125e+04,1.067613463744794045e+00,9.260083521782259822e-05,4.807956787109375000e+03,4.523003303900147709e-01,1.311144128902817438e-04
4.604125136414334634e+02,2.759515029907226562e+03,2.767314895629882812e+03,1.002826534966514860e+00,3.618710955368570630e-04,2.807165874481201172e+03,1.017267832955262685e+00,3.592805182031043581e-04,2.805819900512695312e+03,1.016780075521830140e+00,3.593674100489570593e-04,2.749771327972412109e+03,9.964689384536465910e-01,3.630234259739382216e-04,2.931942146301269531e+03,1.044082206988881545e+00,3.514038563551749464e-04
6.906187704621502235e+02,1.400836643981933548e+03,1.406664950561523483e+03,1.004160589748011478e+00,7.123771555062039830e-04,1.421765008544921784e+03,1.014939903701761015e+00,7.085661549902218205e-04,1.422105258178710983e+03,1.015182794002533084e+00,7.084807513995328111e-04,1.404757476806640625e+03,1.002798517048780980e+00,7.128613880901974202e-04,1.454784420776367142e+03,1.020523969946060650e+00,7.003730378243584569e-04
9.208250272828669267e+02,2.240094815572103016e+03,2.229933469136556141e+03,9.954638766337434719e-01,4.474244619081539013e-04,2.227747164408365734e+03,9.944878890492035994e-01,4.476434056892815492e-04,2.228315287272135265e+03,9.947415045925369625e-01,4.475864913847002165e-04,2.166684872945149891e+03,9.672286055771576185e-01,4.538460635352078477e-04,2.271693883260091297e+03,9.965416849097671337e-01,4.432831707117996676e-04
1.151031284103583630e+03,2.284650305175781341e+03,2.271546013641357604e+03,9.942642024887848873e-01,4.389626477989937983e-04,2.259358106994628997e+03,9.889295100769452951e-01,4.401400302524342356e-04,2.259275271606445131e+03,9.888932527171225839e-01,4.401480539688540860e-04,2.296440296936035338e+03,1.005159926967070350e+00,4.365771612911508500e-04,2.292566656494140716e+03,9.860848773934475231e-01,4.369467335169388805e-04
1.381237540924300447e+03,1.457080657111273922e+03,1.440048470391167484e+03,9.883107454367875411e-01,6.903385772536003648e-04,1.440835601806640625e+03,9.888509567227117270e-01,6.901510676318860530e-04,1.440781925625271242e+03,9.888141185551693191e-01,6.901638510792791397e-04,1.458893171522352532e+03,1.001243129078913885e+00,6.858769781639296060e-04,1.467266199747721430e+03,9.895491777536129518e-01,6.839133994344895762e-04
1.611443797745017037e+03,1.243824326197306391e+03,1.229453310012817383e+03,9.884461045810021274e-01,8.086435468137166509e-04,1.231237847010294672e+03,9.898808224586732596e-01,8.080605092065482227e-04,1.231164812723795649e+03,9.898221049332471821e-01,8.080843542092635201e-04,1.261756635348002192e+03,1.014416016275635268e+00,7.982177052717751627e-04,1.250462049484252930e+03,9.879239897017030314e-01,8.018325479781780686e-04
1.841650054565733853e+03,1.348107148306710315e+03,1.338793734959193671e+03,9.930914887891405529e-01,7.443519827828624447e-04,1.339687610081263983e+03,9.937545481929818125e-01,7.441044349679123721e-04,1.339514502934047186e+03,9.936261406346995617e-01,7.441523620248733902e-04,1.359350704465593708e+03,1.008338873587642626e+00,7.386998682407924094e-04,1.356493085861206055e+03,9.887926624389644648e-01,7.394808203938907755e-04
2.071856311386450670e+03,1.352999290738787067e+03,1.339940890720912421e+03,9.903485536856827531e-01,7.426826684712716517e-04,1.338767174039568317e+03,9.894810612269815397e-01,7.430065074997817222e-04,1.338717092241559612e+03,9.894440458358046975e-01,7.430203318023950732e-04,1.332137355259486640e+03,9.845793310949423338e-01,7.448404715507558850e-04,1.361745856148856092e+03,9.890324830455973215e-01,7.367174050547349931e-04
2.302062568207167260e+03,9.144083512250115291e+02,9.036403029946719698e+02,9.882240268082483903e-01,1.100080570098059931e-03,9.040415499070111309e+02,9.886628317598891158e-01,1.099837833725833590e-03,9.041521552590762667e+02,9.887837901390607032e-01,1.099770941285147614e-03,9.181378795399385808e+02,1.004076684416174814e+00,1.091376665380073760e-03,9.152739684161017522e+02,9.836101211475200001e-01,1.093085930016689461e-03
2.532268825027883850e+03,7.247944459915161133e+02,7.182695157527923584e+02,9.909975438211344745e-01,1.385939953474060217e-03,7.185421819686889648e+02,9.913737418141027602e-01,1.385678130282399449e-03,7.185409450531005859e+02,9.913720352397833446e-01,1.385679317786627646e-03,7.080110865831375122e+02,9.768416326113341652e-01,1.395861234867308521e-03,7.291508252620697021e+02,9.885862757211247853e-01,1.375567594972545256e-03
2.762475081848600894e+03,4.752167675495147705e+02,4.727696541786193620e+02,9.948505323507121911e-01,2.109734859233632423e-03,4.716166755199432146e+02,9.924243160692000076e-01,2.112303926988860943e-03,4.716799288749695052e+02,9.925574202846771943e-01,2.112162823623814009e-03,4.815286708027124405e+02,1.013279432292915727e+00,2.090417546545526081e-03,4.771496544361114616e+02,9.866768071489205871e-01,2.100032040010526083e-03
2.992681338669317483e+03,5.372313464620839341e+02,5.309906753042470200e+02,9.883836429148548097e-01,1.872269958161835654e-03,5.309459287394647617e+02,9.883003518614250638e-01,1.872348388634864766e-03,5.309120228808859565e+02,9.882372396495222588e-01,1.872407822210447490e-03,5.327789003952690337e+02,9.917090604087807071e-01,1.869138088087511250e-03,5.379095562644627080e+02,9.839204267228552903e-01,1.860221292788712339e-03
3.222887595490034073e+03,4.679546042355623854e+02,4.629129223823547363e+02,9.892261304674124789e-01,2.148533430171872295e-03,4.633844763148914581e+02,9.902338220859338014e-01,2.147445588579757845e-03,4.633262682611292007e+02,9.901094338370837189e-01,2.147579810844987662e-03,4.618774834979664092e+02,9.870097044324136482e-01,2.150922022554500792e-03,4.706042815338481660e+02,9.882440572149180369e-01,2.130926498405523450e-03
3.453093852310751117e+03,4.956454771359761367e+02,4.909467190901438585e+02,9.905199214709200506e-01,2.027180032084516855e-03,4.911895801226298204e+02,9.910099108760274111e-01,2.026681141178680520e-03,4.911118707259495864e+02,9.908531266415999683e-01,2.026840746951148742e-03,4.781686858336130967e+02,9.647352512276647918e-01,2.053775655459122180e-03,4.949353682200114122e+02,9.812719944962162710e-01,2.019017437472511462e-03
3.683300109131467707e+03,4.098263349334399095e+02,4.049828410148620605e+02,9.881815942370699712e-01,2.454562441165851656e-03,4.047832679947217116e+02,9.876946245059209373e-01,2.455163789882765322e-03,4.049378606279690871e+02,9.880718394871701449e-01,2.454697949290604933e-03,4.105957542856534133e+02,1.001872531531415422e+00,2.437763764129109289e-03,4.102717104355494371e+02,9.837477947962026681e-01,2.438732797003721146e-03
3.913506365952184296e+03,3.226643855325106642e+02,3.201451746841956947e+02,9.921924731663291919e-01,3.111341404638960900e-03,3.198579728356722853e+02,9.913023785001656707e-01,3.112732146908334021e-03,3.199218309665548645e+02,9.915002873297291686e-01,3.112422813698663242e-03,3.150241293002819134e+02,9.763161610015522740e-01,3.136319216672552989e-03,3.235918847116930692e+02,9.855045898049858977e-01,3.094747536057563045e-03
4.143712622772901341e+03,2.891590365091959711e+02,2.860735588073730469e+02,9.893294785489964438e-01,3.476854434681914303e-03,2.867242049217223894e+02,9.915796109405138337e-01,3.472926204677403376e-03,2.866772242546081770e+02,9.914171374875608844e-01,3.473209549789636665e-03,2.898300314585367801e+02,1.002314488868888187e+00,3.454286511443561535e-03,2.887429793357849235e+02,9.812659439801378891e-01,3.460794295856010807e-03
4.373918879593617930e+03,3.068973013877868539e+02,3.047566031773885129e+02,9.930247082632589484e-01,3.269822991519688755e-03,3.041953343709309934e+02,9.911958593163330278e-01,3.272826218101692903e-03,3.042564800898234125e+02,9.913950976889608357e-01,3.272498773000344276e-03,3.082383332570394145e+02,1.004362807153720727e+00,3.251304619817518057e-03,3.057833787918090707e+02,9.791131143020365135e-01,3.264343180225198759e-03
4.604125136414334520e+03,2.752944299713257692e+02,2.724363033156241158e+02,9.896179277728236467e-01,3.651429212302795442e-03,2.725592536733996667e+02,9.900645418136102549e-01,3.650609751666776970e-03,2.724952588196723582e+02,9.898320821385853119e-01,3.651036229641543493e-03,2.696349203971124666e+02,9.794348101767967885e-01,3.670187210487336864e-03,2.747883777503044485e+02,9.808734917127068798e-01,3.635816229712275725e-03
4.834331393235051110e+03,2.537651691304312749e+02,2.509406015343136289e+02,9.888693645160346879e-01,3.962704839625297293e-03,2.508589665624830332e+02,9.885476695722000828e-01,3.963345901506952484e-03,2.507937236891852422e+02,9.882905701699402634e-01,3.963858388905682623e-03,2.473257614109251108e+02,9.746166479872806487e-01,3.991275436029231675e-03,2.525437534915076299e+02,9.779500671160930025e-01,3.950157523677300456e-03
5.064537650055767699e+03,2.203097431238959700e+02,2.183927725343143322e+02,9.912987480154085151e-01,4.558897951609158783e-03,2.184116305182961923e+02,9.913843456095705609e-01,4.558701992101117477e-03,2.184673128969529046e+02,9.916370914839343076e-01,4.558123476504132021e-03,2.299274070964140151e+02,1.043645834490083413e+00,4.442084233837822159e-03,2.190969475577859384e+02,9.772702652483842289e-01,4.551592049946399585e-03
5.294743906876485198e+03,1.972225185394287053e+02,1.946268533161708376e+02,9.868389003320685582e-01,5.104002057037928045e-03,1.947214755262647259e+02,9.873186741976223146e-01,5.102769860697958272e-03,1.947564698764255979e+02,9.874961100726938890e-01,5.102314305373380383e-03,1.918338555335998592e+02,9.726678909616763846e-01,5.140618456221273010e-03,1.956076698711940196e+02,9.746337388632181353e-01,5.091258408860913423e-03
5.524950163697201788e+03,1.912856174393704123e+02,1.898419906465630902e+02,9.924530301225344964e-01,5.247586261316069742e-03,1.897356238616140161e+02,9.918969674850348639e-01,5.249051189826231360e-03,1.896990208249343084e+02,9.917056146945339989e-01,5.249555491558999601e-03,1.908093990652184857e+02,9.974998636122708318e-01,5.234272701362511354e-03,1.901177156347977473e+02,9.766800849364706272e-01,5.243792664001385717e-03
5.755156420517918377e+03,1.890407194551967507e+02,1.867971541370664283e+02,9.881318409885649912e-01,5.321443474772711082e-03,1.869953330726850709e+02,9.891801809239493259e-01,5.318638961756750293e-03,1.869530434381394173e+02,9.889564744406714736e-01,5.319237171940456761e-03,1.927435567265465011e+02,1.019576054956395916e+00,5.238531597664597764e-03,1.871408435673940858e+02,9.728038559411255060e-01,5.316581663200474483e-03
5.985362677338634967e+03,1.654253486719998421e+02,1.634439713087948860e+02,9.880225287169648318e-01,6.081442927290376700e-03,1.634383979819037620e+02,9.879888378289850559e-01,6.081545990853170179e-03,1.634876314184882347e+02,9.882864550743450938e-01,6.080635672845063552e-03,1.596166748079386650e+02,9.648744412459303588e-01,6.153012008129558029e-03,1.630665811191905732e+02,9.686680359589553424e-01,6.088429634394131214e-03
6.215568934159351556e+03,1.448194413766628372e+02,1.432560775570753151e+02,9.892047379500563675e-01,6.942623959865297685e-03,1.432149056574193366e+02,9.889204397973733185e-01,6.943616345044246324e-03,1.431797592116565170e+02,9.886777483090709584e-01,6.944463720435465302e-03,1.484435855702656113e+02,1.025011573838166212e+00,6.819771844681775559e-03,1.430362117116044089e+02,9.705796773457101567e-01,6.947926776990291653e-03
6.445775190980068146e+03,1.314238582679203660e+02,1.300256544521876663e+02,9.893611111851371431e-01,7.649660460989569401e-03,1.297977039927528153e+02,9.876266433157634417e-01,7.656335804332257272e-03,1.298865638460431740e+02,9.883027751419132256e-01,7.653732230885736641e-03,1.313812701361519828e+02,9.996617310427700076e-01,7.610147910617198232e-03,1.294300650301433677e+02,9.677719238886824948e-01,7.667126392861294513e-03
6.675981447800785645e+03,1.085516513983408657e+02,1.073680085341135708e+02,9.890960400051048707e-01,9.262704473625303983e-03,1.075127620895703586e+02,9.904295393447476448e-01,9.256498873248739101e-03,1.075491118033726963e+02,9.907644003379620923e-01,9.254941863084271622e-03,1.115704293300708088e+02,1.027794039091150413e+00,9.085799947928414888e-03,1.069607531825701443e+02,9.682780339397840663e-01,9.280208273343861294e-03
6.906187704621502235e+03,8.880011044664585995e+01,8.774372458457946777e+01,9.881037776107147730e-01,1.132863121301437397e-02,8.755942355318272519e+01,9.860283181268273411e-01,1.134046997426259827e-02,8.757578081780292223e+01,9.862125213281287550e-01,1.133941824850259392e-02,8.846751535699722524e+01,9.962383711854102541e-01,1.128228479060204049e-02,8.718728667117179043e+01,9.648320431220629434e-01,1.136445014105792739e-02
7.136393961442218824e+03,7.859469255117269881e+01,7.774841528672438073e+01,9.892323866029845147e-01,1.279237714830180721e-02,7.782922711739173849e+01,9.902605963719169901e-01,1.278576834180896425e-02,7.782740846505531351e+01,9.902374567389798932e-01,1.278591699642565339e-02,7.934988390940885949e+01,1.009591006030568616e+00,1.266256014410501764e-02,7.730552675632330306e+01,9.665612641923296833e-01,1.282871832306547652e-02
7.366600218262935414e+03,7.254854735374451025e+01,7.183504930496215479e+01,9.901652331465251589e-01,1.385198905058163642e-02,7.182627654075622559e+01,9.900443104743846812e-01,1.385283075019688726e-02,7.179168992996216048e+01,9.895675730060874420e-01,1.385615014660754492e-02,7.381360473632813068e+01,1.017418675666378780e+00,1.366461108759784056e-02,7.099495440959930193e+01,9.616362489560940086e-01,1.393305844870180478e-02
7.596806475083652003e+03,6.478466505729235791e+01,6.407376043613140837e+01,9.890266528269883173e-01,1.552090980734565327e-02,6.400106969475746155e+01,9.879046165965059689e-01,1.552967029966932644e-02,6.403289118867654395e+01,9.883958052735012378e-01,1.552583404222579629e-02,6.614078203989909355e+01,1.020912840863025917e+00,1.527572316937503803e-02,6.355320259699454510e+01,9.640005570174869920e-01,1.558386496951582809e-02
7.827012731904368593e+03,5.702303257662998703e+01,5.623469239891620930e+01,9.861750569534446509e-01,1.765883961055924115e-02,5.623290945354261083e+01,9.861437898444707084e-01,1.765911760697887536e-02,5.622468522766180143e+01,9.859995634589351354e-01,1.766040003963952054e-02,5.762535628624129913e+01,1.010541417966839273e+00,1.744445849116445582e-02,5.539090190226571764e+01,9.545533114116709905e-01,1.779138866788329554e-02
8.057218988725085183e+03,4.978303648646060964e+01,4.904527580738067627e+01,9.851804805180861546e-01,2.023711579788491782e-02,4.914336154323358130e+01,9.871507447441258964e-01,2.021705065416079528e-02,4.912964465067936715e+01,9.868752112788671260e-01,2.021985428973510288e-02,4.959519142829454807e+01,9.962049643427739465e-01,2.012491347484720444e-02,4.858682317000169348e+01,9.590675198318185934e-01,2.033143085681542173e-02
8.287425245545802682e+03,4.450366137562127022e+01,4.417775433484850112e+01,9.926768488097633680e-01,2.255263951276636342e-02,4.409010310316907777e+01,9.907073202593004169e-01,2.257495221888676865e-02,4.407654416612510317e+01,9.904026501125109405e-01,2.257840775789838467e-02,4.622748153990712439e+01,1.038710241913424648e+00,2.204289831388669615e-02,4.343373827122408670e+01,9.590550347511075380e-01,2.274345168303765555e-02
8.517631502366519271e+03,4.039713136982499719e+01,4.007952808497245201e+01,9.921379743045373178e-01,2.485192618020347355e-02,3.992908811882922748e+01,9.884139483392778702e-01,2.489847042138578631e-02,3.995196808534755917e+01,9.889803243601112959e-01,2.489138040826228276e-02,4.230736476182937622e+01,1.047260859610505968e+00,2.418219594594754607e-02,3.934819130939349918e+01,9.571638979579486506e-01,2.507984083336334269e-02
8.747837759187235861e+03,3.340151010267436504e+01,3.304819254204630852e+01,9.894221081758884928e-01,3.009795259270279036e-02,3.313797741476446390e+01,9.921101564839487352e-01,3.005734000394630692e-02,3.315847095847129822e+01,9.927237078965598371e-01,3.004808547290134871e-02,3.434033786877989769e+01,1.028081078454391006e+00,2.952347753361795127e-02,3.256341877952218056e+01,9.580230416668259474e-01,3.031914130570351543e-02
8.978044016007952450e+03,2.889577813590726407e+01,2.879637191276396635e+01,9.965598357422404963e-01,3.466676139323505990e-02,2.875731114322139348e+01,9.952080545457328009e-01,3.469024860605400551e-02,2.877132883571809430e+01,9.956931666763276789e-01,3.468181611718590407e-02,2.889957061938700988e+01,1.000103385939186351e+00,3.460438097780910160e-02,2.831232974413902426e+01,9.628381188038626082e-01,3.496007950819823157e-02
9.208250272828669040e+03,2.610550443954386779e+01,2.582879624124300832e+01,9.894003887593257884e-01,3.851019410645305924e-02,2.570194559885283780e+01,9.845412356759621897e-01,3.860448639177791602e-02,2.571566988805593112e+01,9.850669596371627312e-01,3.859426240240190764e-02,2.616600089406562901e+01,1.002289560939851887e+00,3.826123590723873313e-02,2.520828552266298672e+01,9.489061945041468160e-01,3.897587766315879082e-02
9.438456529649385629e+03,2.127894495690570054e+01,2.102186085283756256e+01,9.879183810762804940e-01,4.728042319088243683e-02,2.116226673476836240e+01,9.945167289838083846e-01,4.712400801677280038e-02,2.114600937857347418e+01,9.937527175994181894e-01,4.714206606293123297e-02,2.302813310614403619e+01,1.082169859296072012e+00,4.513885811800534553e-02,2.074209337111781792e+01,9.578876099439134206e-01,4.759520658170444951e-02
9.668662786470102219e+03,1.991036147646831722e+01,1.986920122960300006e+01,9.979327222705642875e-01,5.027707355100592690e-02,1.979518624349977074e+01,9.942153118061332062e-01,5.037079488502287095e-02,1.981369912895289431e+01,9.951451234258269496e-01,5.034732022654945377e-02,2.162528382648121195e+01,1.086097457248377696e+00,4.815067817700246361e-02,1.930187263904196016e+01,9.526477869299014856e-01,5.100448992802749520e-02
9.898869043290818809e+03,1.852931711636483669e+01,1.851555603121717652e+01,9.992573344683324255e-01,5.398857736756871445e-02,1.840617855803834146e+01,9.933543930651529408e-01,5.414845431155343447e-02,1.843076388289530954e+01,9.946812268984005501e-01,5.411243552307246074e-02,1.938780495648582658e+01,1.046297692698284321e+00,5.274579381878245765e-02,1.797210718277428043e+01,9.531289218004863617e-01,5.479238244539322983e-02
1.012907530011153540e+04,1.521637064304904641e+01,1.503825300629588213e+01,9.882943416053990848e-01,6.610559837664031768e-02,1.512359047972637605e+01,9.939026088744064014e-01,6.591966258317490113e-02,1.509069586318472211e+01,9.917408176488041738e-01,6.599121032016166954e-02,1.640643431764581806e+01,1.078172147475588538e+00,6.324444790347037715e-02,1.478402029992877509e+01,9.547585009078435325e-01,6.666579791581479786e-02
1.035928155693225381e+04,1.375148899283479231e+01,1.378985228805857588e+01,1.002789755730726595e+00,7.261810452882652700e-02,1.375446082739269116e+01,1.000216110019754856e+00,7.271154106917000759e-02,1.373194471264586802e+01,9.985787517119704138e-01,7.277111082379660034e-02,1.538944637863075116e+01,1.119071535702402365e+00,6.863083069586099760e-02,1.331523895340369101e+01,9.515054959373492327e-01,7.389145832375886014e-02
1.058948781375297040e+04,1.167132126841996254e+01,1.182860651531735030e+01,1.013476216041020672e+00,8.510664451420411891e-02,1.184981187030270355e+01,1.015293093025011473e+00,8.502991706243159808e-02,1.183573421372755163e+01,1.014086917969815094e+00,8.508083887915712795e-02,1.251828173407026235e+01,1.072527222820462534e+00,8.267865070680231743e-02,1.156042748448011004e+01,9.733430497991099051e-01,8.608908529756439942e-02
1.081969407057368699e+04,1.063993718658816334e+01,1.076633644889887087e+01,1.011879700048420982e+00,9.343055377393788552e-02,1.081032377563110813e+01,1.016013871703840499e+00,9.323895888831543188e-02,1.081023242855316902e+01,1.016005286401471031e+00,9.323935595307515645e-02,1.197510037132322047e+01,1.125444859131933706e+00,8.843521537736945271e-02,1.041814322330772136e+01,9.621955001947756214e-01,9.497541851251237177e-02
1.104990032739440358e+04,8.694505653893335406e+00,8.902531831883466751e+00,1.023926165129006360e+00,1.136554946601974619e-01,8.820208242306343038e+00,1.014457703912897912e+00,1.141897042596829032e-01,8.867690510570238160e+00,1.019918884818868499e+00,1.138809737273589473e-01,1.007310704065439033e+01,1.158510940384102517e+00,1.065644767070665078e-01,8.550328149245334686e+00,9.663844885199421864e-01,1.159767628282962898e-01
1.128010658421512017e+04,8.063143147645812192e+00,8.380294436196747299e+00,1.039333456289131208e+00,1.216290687274061560e-01,8.364188020803817736e+00,1.037335920700589442e+00,1.217483217140715168e-01,8.406997317252191237e+00,1.042645177359498243e+00,1.214318726827194606e-01,9.638437556985177679e+00,1.195319163188643952e+00,1.129820877358966302e-01,8.153533034026622772e+00,9.936959667245210959e-01,1.233298351397270759e-01
1.151031284103583675e+04,7.475576277201374076e+00,7.724207387206011965e+00,1.033259122880318959e+00,1.315808201062299010e-01,7.629387255314560079e+00,1.020575133261935941e+00,1.324068075831278113e-01,7.656375937618403960e+00,1.024185380994429018e+00,1.321706526433027162e-01,9.135749232156999966e+00,1.222025922665417097e+00,1.203974107215190215e-01,7.423165359756066728e+00,9.757903523942074164e-01,1.342395249702733884e-01
1.174051909785655334e+04,5.923904326318958802e+00,6.185017014451233308e+00,1.044077803041516539e+00,1.651674780697509615e-01,6.097950527605450866e+00,1.029380319414213485e+00,1.663636788417155732e-01,6.122028451182959685e+00,1.033444855613850244e+00,1.660311440335598132e-01,7.232965856790542603e+00,1.220923963050499106e+00,1.520087306298634755e-01,5.867397443287902803e+00,9.733062976979496295e-01,1.696165562614282141e-01
1.197072535467726993e+04,4.349234596850016565e+00,4.709919775716769230e+00,1.082930725127585259e+00,2.207711578529296670e-01,4.697624898826082251e+00,1.080103819239456753e+00,2.210711906110501557e-01,4.690932771525321954e+00,1.078565128430364339e+00,2.212348420668047433e-01,5.684276937984694023e+00,1.306897478385070865e+00,1.993278653920893262e-01,4.557535574699823400e+00,1.029744059645987697e+00,2.245482887150759277e-01
1.220093161149798652e+04,3.491095686223097960e+00,3.871050543909849040e+00,1.108835417827751302e+00,2.716599124062608617e-01,3.839755775233687274e+00,1.099871249701492193e+00,2.728196049961378877e-01,3.828514995963074430e+00,1.096651406912601434e+00,2.732385760444097089e-01,5.227008154312538402e+00,1.497162402279673010e+00,2.294029319603652362e-01,3.721691024316431395e+00,1.047588264631230004e+00,2.772853378677541114e-01
1.243113786831870311e+04,3.636398897632772353e+00,4.005608168005207581e+00,1.101531564816165654e+00,2.617113518506061776e-01,3.962282912874663499e+00,1.089617235186721489e+00,2.632035463354190363e-01,3.954712576497300347e+00,1.087535412870063389e+00,2.634660295552037623e-01,4.985082046485241669e+00,1.370820982113287734e+00,2.319742016589950717e-01,3.858660962455618737e+00,1.042742718844087646e+00,2.668424318596988032e-01
1.266134412513941970e+04,2.862617799615923442e+00,3.380977017963503251e+00,1.181078737935999712e+00,3.203282817726756937e-01,3.357251874508058620e+00,1.172790819283838770e+00,3.215501457081065828e-01,3.350297821527148834e+00,1.170361555767821082e+00,3.219100535011022446e-01,4.530576240385268072e+00,1.582590709688593833e+00,2.705139094245889719e-01,3.333112490977695686e+00,1.144191364755415830e+00,3.228029475454100017e-01
1.289155038196013629e+04,2.508419516604653676e+00,2.958995247736226464e+00,1.179625349009189250e+00,3.658035993618473092e-01,2.889815830517300288e+00,1.152046462478850897e+00,3.704914423685309321e-01,2.870284674385952250e+00,1.144260222576769070e+00,3.718367712710478057e-01,4.116030484898189457e+00,1.640787640762987110e+00,3.019050172873634086e-01,2.814086809884323692e+00,1.102425833098603203e+00,3.757628224970682163e-01
1.312175663878085288e+04,2.188231158132354359e+00,2.723191922278298538e+00,1.244471779024721947e+00,4.072139514873103217e-01,2.755482246085173337e+00,1.259228137687686155e+00,4.045541956970607478e-01,2.736697648121561244e+00,1.250643762177904739e+00,4.060972409307322395e-01,3.981699167523119254e+00,1.819501371823700531e+00,3.241467319567992167e-01,2.646034982252038148e+00,1.188268120885045631e+00,4.137132590389348552e-01
1.335196289560157129e+04,1.871517294362842421e+00,2.469120595931679318e+00,1.319314870008877261e+00,4.607617706309741767e-01,2.396039255495582498e+00,1.280265623359528426e+00,4.686522548989654480e-01,2.393384358466981610e+00,1.278847043346082790e+00,4.689439904605938736e-01,3.421246081570183950e+00,1.827957024517423923e+00,3.778669232306781645e-01,2.323677866463805142e+00,1.220096380021024496e+00,4.767358664682257996e-01
1.358216915242228788e+04,1.477102032791742126e+00,1.942298554653382858e+00,1.314938651179304863e+00,5.848978348261737459e-01,1.961402303890993348e+00,1.327871914294178612e+00,5.816482412610480823e-01,1.941383904109344583e+00,1.314319431569736407e+00,5.850543301672999075e-01,3.111393515506516216e+00,2.106276373525726164e+00,4.358633308615695312e-01,1.934309976094442884e+00,1.286849143698997944e+00,5.862675029548816141e-01
1.381237540924300447e+04,1.284360759393834650e+00,1.714126457510116941e+00,1.334614472587214440e+00,6.670030102929949134e-01,1.634911817783603949e+00,1.272938156842486235e+00,6.851021777259809209e-01,1.623710574817425645e+00,1.264216897738101419e+00,6.877410386985740587e-01,3.199062578532160472e+00,2.490651334177852672e+00,4.460810138199773345e-01,1.601576008814938223e+00,1.225385080536477655e+00,6.930158768659885338e-01
1.404258166606372106e+04,1.063647248033319004e+00,1.657836828361620718e+00,1.558634059766484281e+00,7.348931479508541420e-01,1.586733678816673709e+00,1.491785628882639658e+00,7.546085091915533116e-01,1.596035170858514762e+00,1.500530531912322996e+00,7.519694779323717881e-01,2.861044676167909806e+00,2.689704386732523211e+00,5.095870106768749519e-01,1.557309663912146869e+00,1.438763527221344818e+00,7.630800761678503408e-01
1.427278792288443765e+04,1.030798267996014594e+00,1.506676991546184396e+00,1.461660383340894098e+00,7.881850246535336835e-01,1.405963206055517167e+00,1.363955731890066581e+00,8.207614989392698623e-01,1.456231846212770575e+00,1.412722441844848742e+00,8.041720076382238291e-01,2.591660476878893782e+00,2.514042750331968001e+00,5.520997149668859239e-01,1.450651466817956203e+00,1.382934029617031602e+00,8.059804605108938924e-01
1.450299417970515424e+04,8.001412375224754570e-01,1.217493470553308699e+00,1.521598204740835181e+00,9.912597121742606765e-01,1.163642845042049956e+00,1.454296804705511814e+00,1.018441903953198224e+00,1.175690419971942902e+00,1.469353615134626478e+00,1.012231984650063810e+00,2.761403611712157868e+00,3.450917436386469195e+00,5.615457565055097522e-01,1.228000197261571946e+00,1.508147592068483478e+00,9.861245205578850204e-01
1.473320043652587083e+04,6.989405333276903498e-01,1.059653737936277818e+00,1.516085685989928322e+00,1.137271986313548311e+00,1.032995512817948214e+00,1.477944780079938347e+00,1.154777051064286297e+00,1.017349057378824639e+00,1.455558819196213438e+00,1.165304509699144120e+00,2.711478093540982126e+00,3.879251948676389006e+00,5.864333350982948723e-01,1.006989960294565334e+00,1.415783920665487194e+00,1.172380708051790066e+00
1.496340669334658742e+04,5.865634663117816894e-01,8.626305947545915842e-01,1.470651761144750935e+00,1.380077419395662197e+00,8.765236284118145260e-01,1.494337235019522092e+00,1.366972620572417974e+00,8.623169112019241078e-01,1.470116979197556351e+00,1.380376207062739891e+00,2.549428534472826691e+00,4.346079054269540443e+00,6.377484453159426581e-01,8.421553887077607436e-01,1.410877423959238763e+00,1.399855536989216498e+00
1.519361295016730401e+04,4.862191138490743469e-01,7.438040574779734015e-01,1.529771323858023280e+00,1.625985629069279570e+00,7.681559672491857782e-01,1.579855553534710522e+00,1.594419428556339557e+00,7.435124955227365717e-01,1.529171672493170986e+00,1.626371140465087795e+00,2.495465768937719986e+00,5.132118588813425752e+00,6.707559372546771925e-01,7.222156772040762007e-01,1.459643998729665881e+00,1.655033448893837855e+00
1.542381920698802060e+04,3.709040051780903013e-01,6.408037788132787682e-01,1.727680935948900043e+00,1.976855403948401424e+00,6.561920413369080052e-01,1.769169467506386484e+00,1.947237560485337360e+00,6.406831775238970295e-01,1.727355780955430298e+00,1.977091084386740638e+00,2.224847635923651978e+00,5.997975383190179421e+00,7.704811131392520496e-01,6.056258328317198902e-01,1.604556191258696529e+00,2.048068499449074764e+00
1.565402546380873719e+04,3.118250366075147606e-01,4.956593147219448547e-01,1.589543033857852450e+00,2.476828184604638938e+00,5.059239208892933881e-01,1.622460872268204790e+00,2.445738367092698429e+00,4.957581374290414566e-01,1.589859951024516382e+00,2.476525098960850269e+00,2.158557472903220198e+00,6.921841434958851735e+00,8.095839448974549990e-01,4.840849283166596129e-01,1.525536634763809518e+00,2.512847040670659560e+00
1.588423172062945378e+04,2.873585172509774410e-01,4.082209388911723913e-01,1.420598013925003400e+00,2.875300560330632749e+00,4.092340643983334303e-01,1.424123663753841473e+00,2.871118718009647353e+00,4.075905179185792537e-01,1.418404165701453001e+00,2.877908880774302514e+00,2.091705708429217214e+00,7.278622294944354643e+00,8.406602936233354972e-01,4.055172010697424279e-01,1.386747107347954922e+00,2.886520550680108155e+00
1.611443797745017037e+04,2.261665969625955286e-01,3.535727591290339644e-01,1.563328819894254540e+00,3.449826165819065427e+00,3.734170544901679878e-01,1.651070757154848190e+00,3.335647986989125346e+00,3.534283648409387579e-01,1.562690377745703518e+00,3.450685619793122605e+00,1.823445571988236757e+00,8.061793757056936016e+00,9.757862787762067169e-01,3.332306696102023125e-01,1.447866648959364788e+00,3.575276676364895323e+00
1.634464423427088877e+04,2.105256418792784967e-01,3.074211846370334400e-01,1.460255301410350981e+00,3.861400239580409899e+00,3.317036838588220404e-01,1.575597541932828083e+00,3.688476268371382538e+00,3.071420715634964882e-01,1.458929510067095148e+00,3.863482206952603359e+00,1.924788640304045284e+00,9.141890700550133531e+00,9.366213492383250738e-01,2.939810269004242138e-01,1.372228277131921192e+00,3.964268707958977345e+00
1.657485049109160536e+04,1.871226569713579369e-01,2.809006537199425502e-01,1.501157894326707876e+00,4.273291424407624994e+00,2.850893367355203378e-01,1.523542586182697001e+00,4.235385857737200332e+00,2.802436211470352712e-01,1.497646654247384523e+00,4.279298900322800137e+00,1.853771733929929555e+00,9.905399802264636122e+00,9.799505526023036817e-01,2.838705467495500345e-01,1.490754128812676882e+00,4.246345773568998894e+00
1.680505674791232013e+04,1.268768146147545572e-01,2.001431171770374773e-01,1.577460135523947482e+00,6.115835169561975704e+00,2.168809599362504781e-01,1.709382132541569455e+00,5.818050232063188609e+00,1.995790287828407283e-01,1.573014182211598166e+00,6.126402821235983787e+00,1.829302029158824450e+00,1.441686562273513950e+01,1.022396482131789019e+00,2.135757894422381231e-01,1.654176381779366878e+00,5.874532831199007710e+00
1.703526300473303854e+04,8.938255758540755713e-02,1.521686746839534532e-01,1.702442610668776002e+00,8.279817002836649564e+00,1.755391975827011730e-01,1.963908869076257169e+00,7.549398873380105179e+00,1.514327954375059293e-01,1.694209692901298192e+00,8.305118319469027455e+00,1.742278817890061005e+00,1.949095694084552477e+01,1.091900998115321153e+00,1.534120721138409749e-01,1.686626115466101306e+00,8.237414486792456358e+00
1.726546926155375331e+04,8.501767238402473115e-02,1.429164242598095214e-01,1.681020195592466848e+00,8.774466082295552027e+00,1.492374712451627339e-01,1.755369996146886269e+00,8.537699403373126827e+00,1.422776272786515084e-01,1.673506499166239614e+00,8.799126083857229830e+00,1.809566275562558779e+00,2.128248060668455111e+01,1.055636050929517067e+00,1.336744784610345849e-01,1.545081347656266590e+00,9.145275640994427135e+00
1.749567551837447172e+04,6.908450836259551198e-02,1.080008127228838655e-01,1.563314486599992170e+00,1.129399087253876210e+01,1.066564894602473473e-01,1.543855373486228144e+00,1.138038377371748133e+01,1.071331958479151691e-01,1.550755710464321480e+00,1.134959741395103094e+01,1.522672634957165538e+00,2.204026541568999420e+01,1.256471949850757941e+00,1.056545691420163607e-01,1.502863974683171344e+00,1.144563670909395903e+01
1.772588177519519013e+04,4.982467684330361968e-02,8.981100906208722146e-02,1.802540723837283032e+00,1.432298618388343669e+01,9.006957747536062375e-02,1.807730289122103429e+00,1.429651281777600680e+01,8.895054664533359745e-02,1.785270919570217885e+00,1.441179448119395801e+01,1.506717233043728399e+00,3.023580224654021364e+01,1.284893326333255370e+00,8.753799821010255222e-02,1.726490458404203787e+00,1.455999600490021351e+01
1.795608803201590490e+04,4.460516912998476607e-02,7.217852093162946403e-02,1.618164942302823039e+00,1.712567909906609742e+01,7.089015633876745437e-02,1.589281191428399298e+00,1.731671816052078228e+01,7.158325261843856424e-02,1.604819665851651811e+00,1.721341911615336784e+01,1.489209108365078693e+00,3.338448899646563461e+01,1.303936588985813660e+00,7.148026074961914833e-02,1.574755013560328765e+00,1.722869099140406490e+01
1.818629428883662331e+04,3.893833885040993981e-02,5.319943689615824062e-02,1.366248239313325508e+00,2.170662341037132492e+01,5.469698184438479688e-02,1.404707634152424944e+00,2.135946120715514951e+01,5.182074898262866575e-02,1.330841286828112979e+00,2.203636074085739693e+01,1.436716770323423153e+00,3.690186064486935180e+01,1.355334738588515942e+00,5.345978358617195503e-02,1.349154972136207498e+00,2.164546147972556511e+01
1.841650054565733808e+04,3.432449910074605176e-02,4.739925031372833886e-02,1.380916009134073752e+00,2.447269018283408570e+01,5.060150539724245222e-02,1.474209579831643468e+00,2.354991279552507777e+01,4.628826941673954559e-02,1.348549013952936582e+00,2.480996542832023977e+01,1.615305471455767083e+00,4.705766481784633726e+01,1.212391940196998030e+00,4.945532646074536631e-02,1.415862002692281463e+00,2.387209553846673060e+01
1.864670680247805649e+04,3.316261943109566346e-02,5.018776239739963785e-02,1.513383540213954825e+00,2.399509103767839946e+01,4.936664645356358960e-02,1.488623254147223962e+00,2.423382758299519679e+01,4.895882971686660312e-02,1.476325771508847584e+00,2.435417324889751356e+01,1.792910591990221292e+00,5.404010792386301887e+01,1.095237473140112883e+00,4.897961343522183597e-02,1.451371491374761957e+00,2.434801112912164101e+01
1.887691305929877126e+04,2.298781397985294461e-02,4.354416788555681705e-02,1.894228303905710176e+00,3.006073085340943152e+01,4.230382878185165452e-02,1.840271929245978599e+00,3.063179168732842328e+01,4.237107240425592308e-02,1.843197114844887796e+00,3.060027657518768862e+01,1.724617053161967783e+00,7.499191374491567785e+01,1.144417196765560973e+00,4.624601865229620301e-02,1.976918374278253454e+00,2.888761063722027700e+01
1.910711931611948967e+04,1.844085947695103464e-02,4.122465074231678600e-02,2.235505931480194164e+00,3.352020275449079634e+01,3.218440001893958097e-02,1.745276572340155541e+00,3.950597033803541080e+01,3.984579890543087088e-02,2.160734371151928457e+00,3.431316969449963494e+01,1.596284168687733818e+00,8.651066112981169454e+01,1.238592528394606651e+00,4.122584101489999014e-02,2.196850117388278623e+00,3.351953407031699328e+01
1.933732557294020444e+04,1.398495697139878757e-02,3.752103004080709070e-02,2.682956416494015617e+00,3.883043731452113434e+01,3.518480921047739685e-02,2.515904001881114294e+00,4.067540188420081648e+01,3.584966025664471090e-02,2.563444444624487062e+00,4.013274529325646256e+01,1.318082438781857491e+00,9.425236100358000613e+01,1.501425927133266169e+00,3.776130048208869994e-02,2.653370340995521826e+00,3.865013816308773897e+01
1.956753182976092285e+04,9.064720557944383472e-03,3.084043255512369797e-02,3.402248569934671618e+00,5.011884039971376126e+01,3.288648159650620073e-02,3.627964192198319893e+00,4.767443833043580526e+01,2.945435459696454927e-02,3.249339503483155145e+00,5.192232658641901111e+01,1.969093760475516319e+00,2.174179637404533310e+02,1.011045428654701706e+00,3.330742783145979047e-02,3.610760951533855234e+00,4.720081648019838383e+01
1.979773808658163762e+04,8.773419736826326698e-03,3.386066143866628408e-02,3.859459874755171604e+00,4.691082685158609422e+01,2.824561932357028127e-02,3.219453778668496025e+00,5.402625380785809739e+01,3.200401965295895934e-02,3.647838655048322831e+00,4.904672853246881914e+01,1.518614282831549644e+00,1.730610511174378132e+02,1.309423862641919456e+00,3.650750796077772975e-02,4.089077514319556350e+00,4.416870637802382760e+01
2.002794434340235603e+04,8.569801475719682551e-03,3.314455112974558360e-02,3.867598476306843391e+00,4.794512859676904526e+01,3.117727255448698997e-02,3.638039065761293767e+00,5.031816929417384898e+01,3.119319497740694405e-02,3.639897034462793446e+00,5.029802022987975363e+01,2.127005104507718958e+00,2.482926852290085264e+02,9.365174058442210514e-01,4.036599969757454637e-02,4.628678465959762178e+00,4.086987342697194237e+01
2.025815060022307080e+04,9.339763472477594433e-03,2.104906877502799034e-02,2.253704693599079434e+00,6.581365100543364122e+01,2.774982914949456966e-02,2.971149026553802752e+00,5.392348253550739656e+01,1.897017937153577805e-02,2.031119891572959357e+00,7.064655732510370001e+01,1.341363718112309700e+00,1.436152411388346763e+02,1.480709649378161075e+00,3.231819812208414078e-02,3.400347663337373039e+00,4.801003033862058800e+01
2.048835685704378920e+04,6.092605452674130888e-03,3.030931980659564220e-02,4.974771473720237758e+00,5.494214895929710707e+01,2.679435179258386410e-02,4.397847850269615222e+00,6.081438258592262969e+01,2.813483790184060848e-02,4.617866382516503165e+00,5.843264363291077501e+01,1.395674089590708489e+00,2.293607863065142567e+02,1.426778631696432820e+00,3.873315267264842987e-02,6.247292711315848734e+00,4.461720411751782933e+01
2.071856311386450761e+04,1.778602600097656250e-03,3.013229370117187500e-02,1.694155495978552395e+01,6.267451660141657754e+01,2.485492825508117676e-02,1.397441353887399451e+01,7.509331041667365980e+01,2.809357643127441406e-02,1.579530831099195609e+01,6.695192867917600665e+01,1.008281230926513672e+00,5.796378124639560383e+02,1.980157371916378750e+00,3.842844069004058838e-02,2.123175536923010398e+01,4.974252858057207050e+01
