# uv,model,feather,feather_ratio,feather_ratio_err,smclean,smclean_ratio,smclean_ratio_err,int,int_ratio,int_ratio_err,joint,joint_ratio,joint_ratio_err,tp2vis,tp2vis_ratio,tp2vis_ratio_err,
0.000000000000000000e+00,2.282476171875000000e+04,2.260803710937500000e+04,9.905048467955323011e-01,4.402106081040967696e-05,1.181179687500000000e+04,5.174992414180118461e-01,5.774245713778534576e-05,1.008789843750000000e+04,4.419716867936908100e-01,6.076689002059309402e-05,2.093784375000000000e+04,9.173301098251219754e-01,4.570111807963901803e-05,1.877892822265625000e+03,8.084936469896344957e-02,8.096295872491167628e-05
2.302062568207167317e+02,1.044589636230468750e+04,1.017112084960937500e+04,9.736953629286546619e-01,9.700724306735552410e-05,8.228407470703125000e+03,7.877167440025878431e-01,1.070990392940322062e-04,7.433205017089843750e+03,7.115909213797568800e-01,1.118624452963267021e-04,1.100711724853515625e+04,1.053726316311411892e+00,9.322699534341571199e-05,4.865252441406250000e+03,4.576903212979756552e-01,1.306237713211475904e-04
4.604125136414334634e+02,2.759515029907226562e+03,2.767869945526123047e+03,1.003027675344525083e+00,3.618347571028737806e-04,2.844674171447753906e+03,1.030860183987977852e+00,3.568758884008484253e-04,2.805782688140869141e+03,1.016766590408894499e+00,3.593698129597018977e-04,2.744057910919189453e+03,9.943984962433970454e-01,3.634002910148134810e-04,2.915215110778808594e+03,1.038125609179915587e+00,3.524396668064666690e-04
6.906187704621502235e+02,1.400836643981933548e+03,1.408661746215820358e+03,1.005586020516741730e+00,7.118708474715390979e-04,1.423309538269043060e+03,1.016042480316069918e+00,7.081786391120542491e-04,1.425383728027343750e+03,1.017523159571007696e+00,7.076589001366927287e-04,1.414915353393554597e+03,1.010049806859231181e+00,7.102897280156798745e-04,1.454217366027831986e+03,1.020126183885880611e+00,7.005121419728095166e-04
9.208250272828669267e+02,2.240094815572103016e+03,2.233164919535318859e+03,9.969064273580695579e-01,4.471012457209734493e-04,2.230279436747232921e+03,9.956183199226039671e-01,4.473898351938549074e-04,2.232342730204264171e+03,9.965393940854869737e-01,4.471834384560022767e-04,2.152058751424153797e+03,9.606993666922588604e-01,4.553573964820420059e-04,2.270750940958658703e+03,9.961280370513269089e-01,4.433758341447206655e-04
1.151031284103583630e+03,2.284650305175781341e+03,2.271501416015625182e+03,9.942446819408782277e-01,4.389669445593027334e-04,2.259542961120605469e+03,9.890104214206015820e-01,4.401221257101246408e-04,2.259216802978515716e+03,9.888676607795744422e-01,4.401537176144205087e-04,2.283910489654540925e+03,9.996755866213700159e-01,4.377745244549564462e-04,2.291269725036620912e+03,9.855270377800806614e-01,4.370705752712127339e-04
1.381237540924300447e+03,1.457080657111273922e+03,1.439446032206217524e+03,9.878972898178347561e-01,6.904821582953409942e-04,1.439953477647569343e+03,9.882455515553545400e-01,6.903612132159033877e-04,1.440193696763780281e+03,9.884104148489811781e-01,6.903039739143222026e-04,1.454421200222439211e+03,9.981740006294304024e-01,6.869304623327091019e-04,1.465202946980794195e+03,9.881576851400970529e-01,6.843962705055058916e-04
1.611443797745017037e+03,1.243824326197306391e+03,1.227918672561645508e+03,9.872122989552000183e-01,8.091456114184154011e-04,1.230229214350382563e+03,9.890699099860126298e-01,8.083899427484716972e-04,1.229637126922607422e+03,9.885938882397702354e-01,8.085834519382903733e-04,1.249615724245707270e+03,1.004655073214733463e+00,8.021043380165329391e-04,1.248709868113199946e+03,9.865396837873530167e-01,8.023962136869489201e-04
1.841650054565733853e+03,1.348107148306710315e+03,1.338836840765816760e+03,9.931234638488954936e-01,7.443400413755387563e-04,1.340170066561017620e+03,9.941124251468721473e-01,7.439708929342716019e-04,1.339555487224033868e+03,9.936565419941451038e-01,7.441410144115991141e-04,1.356926810128348279e+03,1.006540877766781694e+00,7.393617931345810267e-04,1.353741564069475544e+03,9.867869872264906084e-01,7.402338964571656332e-04
2.071856311386450670e+03,1.352999290738787067e+03,1.340750031335013318e+03,9.909465884515834544e-01,7.424595836038249894e-04,1.339422289167131794e+03,9.899652559579379396e-01,7.428257205061793676e-04,1.339523607254028320e+03,9.900401400229851268e-01,7.427977684018703545e-04,1.323089341299874377e+03,9.778919669902419454e-01,7.473588192796094820e-04,1.360854310171944690e+03,9.883849555151758004e-01,7.369594289569737040e-04
2.302062568207167260e+03,9.144083512250115291e+02,9.036465796302346689e+02,9.882308909576781319e-01,1.100076772190355890e-03,9.036585219888125948e+02,9.882439511605535243e-01,1.100069546102322394e-03,9.041539761038387724e+02,9.887857814209206619e-01,1.099769840133909497e-03,9.193567716935101544e+02,1.005409666334786234e+00,1.090651234823409406e-03,9.147859166089226619e+02,9.830856304335359175e-01,1.093377578953561718e-03
2.532268825027883850e+03,7.247944459915161133e+02,7.186816914081573486e+02,9.915662232000184151e-01,1.385544206919047056e-03,7.193023090362548828e+02,9.924224902858520547e-01,1.384948752939714695e-03,7.189575686454772949e+02,9.919468514441304174e-01,1.385279452235338047e-03,7.127923128604888916e+02,9.834382819734113212e-01,1.391218787567917404e-03,7.294440622329711914e+02,9.889838478487612550e-01,1.375290221438191284e-03
2.762475081848600894e+03,4.752167675495147705e+02,4.726363747119903564e+02,9.945700719887676788e-01,2.110031513139422506e-03,4.714939442634582747e+02,9.921660523359614459e-01,2.112577765355536791e-03,4.715394069671630746e+02,9.922617196330966172e-01,2.112476320548959188e-03,4.798128965139388811e+02,1.009668933266195223e+00,2.094173115860613159e-03,4.773915513992309343e+02,9.871770152513698049e-01,2.099498776377585040e-03
2.992681338669317483e+03,5.372313464620839341e+02,5.315595512390136719e+02,9.894425460084901314e-01,1.871273421491402231e-03,5.312559382397195122e+02,9.888774021439455941e-01,1.871805147927582333e-03,5.314775699117909653e+02,9.892899463365563140e-01,1.871416968042141984e-03,5.355790650740913179e+02,9.969212575895707307e-01,1.864259419568964696e-03,5.382065416418987525e+02,9.844636592716996537e-01,1.859707587135541297e-03
3.222887595490034073e+03,4.679546042355623854e+02,4.626365087899294508e+02,9.886354458370585352e-01,2.149171609320122203e-03,4.631837706999345414e+02,9.898049223312561651e-01,2.147908467566430907e-03,4.630432303818789137e+02,9.895045933745932887e-01,2.148232708641932814e-03,4.641077565713362105e+02,9.917756894513825028e-01,2.145775226746156079e-03,4.703475169702009566e+02,9.877048652354045721e-01,2.131509622327085879e-03
3.453093852310751117e+03,4.956454771359761367e+02,4.910720813274383545e+02,9.907728487003160112e-01,2.026922479330903974e-03,4.913845152854919434e+02,9.914032064307222170e-01,2.026280878348413195e-03,4.912373185157775879e+02,9.911062264793163434e-01,2.026583104713227008e-03,4.782196292479832778e+02,9.648380327545964530e-01,2.053668221559971137e-03,4.953301457166671753e+02,9.820546908367886463e-01,2.018213116325463189e-03
3.683300109131467707e+03,4.098263349334399095e+02,4.048476224740346083e+02,9.878516531637384634e-01,2.454969846298477466e-03,4.047451732556025377e+02,9.876016711355003475e-01,2.455278609543323342e-03,4.047995654940605164e+02,9.877343913484821769e-01,2.455114671593964029e-03,4.130063022971153259e+02,1.007754379586135673e+00,2.430622174959504254e-03,4.096073301037152419e+02,9.821547464096735958e-01,2.440710072497833272e-03
3.913506365952184296e+03,3.226643855325106642e+02,3.202200659061300598e+02,9.924245757016331160e-01,3.110978956676302767e-03,3.200113027178007883e+02,9.917775777753365940e-01,3.111989509740149731e-03,3.199938731357968891e+02,9.917235600938526519e-01,3.112073910237028902e-03,3.175044815951380315e+02,9.840032167068535340e-01,3.124167491403119327e-03,3.238040449865933397e+02,9.861507275314460585e-01,3.093731890966480019e-03
4.143712622772901341e+03,2.891590365091959711e+02,2.860020831108093375e+02,9.890822938252312735e-01,3.477286505946977462e-03,2.867692660331725847e+02,9.917354459854573756e-01,3.472654480030296260e-03,2.866092644691467513e+02,9.911821118550167009e-01,3.473619503890036306e-03,2.915023221969604492e+02,1.008097744759550052e+00,3.444338278549360574e-03,2.888181017875671159e+02,9.815212405893636305e-01,3.460344479876464267e-03
4.373918879593617930e+03,3.068973013877868539e+02,3.045893543879191157e+02,9.924797416287753915e-01,3.270717326550462694e-03,3.040097029368082531e+02,9.905909943231142600e-01,3.273820705675415006e-03,3.040874300320943462e+02,9.908442617677435393e-01,3.273404222969950386e-03,3.080958129564921251e+02,1.003898419458583824e+00,3.252058084133182571e-03,3.056538245836893566e+02,9.786982839581368498e-01,3.265033586915863217e-03
4.604125136414334520e+03,2.752944299713257692e+02,2.724309608782491523e+02,9.895985215052303108e-01,3.651464827836092743e-03,2.723689571695942959e+02,9.893732946139295326e-01,3.651878228415106602e-03,2.724881040319319823e+02,9.898060925544839295e-01,3.651083917159187418e-03,2.721969717087284266e+02,9.887413281766169737e-01,3.653012193824247637e-03,2.748469027165443777e+02,9.810824000677766943e-01,3.635429445427119585e-03
4.834331393235051110e+03,2.537651691304312749e+02,2.511208592785729365e+02,9.895796973992945222e-01,3.961290048572736235e-03,2.510321958197487788e+02,9.892303056402599326e-01,3.961985816224269930e-03,2.509715704388088682e+02,9.889914021644690134e-01,3.962461701731618581e-03,2.485475684536827998e+02,9.794313242980159373e-01,3.981567243453971484e-03,2.523012716637717290e+02,9.770110808357741483e-01,3.952050242377798742e-03
5.064537650055767699e+03,2.203097431238959700e+02,2.181205194978153088e+02,9.900629740880344531e-01,4.561728900830120705e-03,2.181313936289618880e+02,9.901123324640752621e-01,4.561615761723944971e-03,2.181942474421332747e+02,9.903976299378961512e-01,4.560961913752169077e-03,2.328761633985182868e+02,1.057030307748319631e+00,4.413180935247416024e-03,2.188748011028065434e+02,9.762793928177017078e-01,4.553894316844675667e-03
5.294743906876485198e+03,1.972225185394287053e+02,1.946098186901637348e+02,9.867525277102541237e-01,5.104223949816854254e-03,1.948766968658992198e+02,9.881057107935647954e-01,5.100749813876887667e-03,1.947395012378692627e+02,9.874100720346341564e-01,5.102535192405490902e-03,1.921494402749197832e+02,9.742680211571805859e-01,5.136452021249031732e-03,1.956024432931627643e+02,9.746076969432289072e-01,5.091326148597276162e-03
5.524950163697201788e+03,1.912856174393704123e+02,1.899352113824141668e+02,9.929403680473558591e-01,5.246303057944852813e-03,1.898075046790273461e+02,9.922727449134456368e-01,5.248061127113810842e-03,1.897917110794468840e+02,9.921901793771973344e-01,5.248278630937346957e-03,1.903724448555394133e+02,9.952155853393189755e-01,5.240265304984646939e-03,1.900164033362740099e+02,9.761596194764430301e-01,5.245185944547581074e-03
5.755156420517918377e+03,1.890407194551967507e+02,1.870128824228332292e+02,9.892730146277076697e-01,5.318390756030264531e-03,1.871863519975117356e+02,9.901906453645057393e-01,5.315938569432260112e-03,1.871683790002550438e+02,9.900955706244788379e-01,5.316192532852383711e-03,1.941989444891611640e+02,1.027274774117958867e+00,5.218637902664967007e-03,1.873651647539365968e+02,9.739699323094798133e-01,5.313413216698780785e-03
5.985362677338634967e+03,1.654253486719998421e+02,1.634756420092149085e+02,9.882139788222495946e-01,6.080857329914484029e-03,1.635475086407227820e+02,9.886484142463536351e-01,6.079528920219681547e-03,1.635165827165950532e+02,9.884614663307167426e-01,6.080100495419370199e-03,1.600035757368261216e+02,9.672132371018583585e-01,6.145696766642457821e-03,1.631912481026215858e+02,9.694085980113403833e-01,6.086119872307243876e-03
6.215568934159351556e+03,1.448194413766628372e+02,1.434688076042547493e+02,9.906736708858363549e-01,6.937500945910507998e-03,1.433417622868607566e+02,9.897964038822746335e-01,6.940559570730190329e-03,1.433920058389989265e+02,9.901433431582484790e-01,6.939349631395617252e-03,1.490513404753149871e+02,1.029208156730848422e+00,6.805667949280243441e-03,1.433173806492875144e+02,9.724875638420774626e-01,6.941146868829819322e-03
6.445775190980068146e+03,1.314238582679203660e+02,1.301376471746535515e+02,9.902132602845614695e-01,7.646385107838822408e-03,1.299215959707895820e+02,9.885693334762072348e-01,7.652706284201227227e-03,1.299989907060350731e+02,9.891582275801052981e-01,7.650440685845530213e-03,1.320803359803699379e+02,1.004980825394800492e+00,7.589958641602507182e-03,1.296903649284726043e+02,9.697182331433016333e-01,7.659483177581373134e-03
6.675981447800785645e+03,1.085516513983408657e+02,1.074047626654307095e+02,9.894346265751265967e-01,9.261128032110235025e-03,1.075789937476317135e+02,9.910396789161697306e-01,9.253662286758173802e-03,1.075848043262958527e+02,9.910932071544716893e-01,9.253413512748862729e-03,1.121789448161919864e+02,1.033399723259307068e+00,9.060752178214490082e-03,1.070316439072291104e+02,9.689197827070181734e-01,9.277156642239740500e-03
6.906187704621502235e+03,8.880011044664585995e+01,8.787548289400466217e+01,9.895875405110362566e-01,1.132018272690203317e-02,8.768857372568008657e+01,9.874827101523300232e-01,1.133217129120399000e-02,8.770728271058264625e+01,9.876933966572055690e-01,1.133097013233008536e-02,8.955765534969086161e+01,1.008514507644116431e+00,1.121332692367521533e-02,8.740769067216426436e+01,9.672710781088020848e-01,1.135023527506297605e-02
7.136393961442218824e+03,7.859469255117269881e+01,7.786635895417286690e+01,9.907330435000349933e-01,1.278273398240372533e-02,7.793765151500701904e+01,9.916401347872455529e-01,1.277691209399143407e-02,7.794315478893426530e+01,9.917101557231206010e-01,1.277646290647293723e-02,8.058940075911007739e+01,1.025361729333836180e+00,1.256396158682947239e-02,7.741049226889244039e+01,9.678736619313066392e-01,1.282008673177612891e-02
7.366600218262935414e+03,7.254854735374451025e+01,7.190429767847061271e+01,9.911197439676834309e-01,1.384534862954046007e-02,7.187183782577514535e+01,9.906723214640018593e-01,1.384846050309261438e-02,7.185585298538208576e+01,9.904519884459592749e-01,1.384999345797703445e-02,7.370043868541716847e+01,1.015858837828089944e+00,1.367518453565914893e-02,7.113439235925675064e+01,9.635249548223885352e-01,1.391953703059590694e-02
7.596806475083652003e+03,6.478466505729235791e+01,6.425341431452677909e+01,9.917997454753255671e-01,1.549930074700711473e-02,6.415141974504177824e+01,9.902253826319766805e-01,1.551156143034827101e-02,6.421255398713626050e+01,9.911690356097364596e-01,1.550421020557946582e-02,6.701595492087878370e+01,1.034421529520929361e+00,1.517429138751304370e-02,6.366979761994802089e+01,9.657691172548891201e-01,1.556971987049820920e-02
7.827012731904368593e+03,5.702303257662998703e+01,5.620274810388422537e+01,9.856148570905374218e-01,1.766382168424468491e-02,5.624101640571628025e+01,9.862859596275802554e-01,1.765785364349571271e-02,5.619015225506665701e+01,9.853939665442368323e-01,1.766578692201982437e-02,5.831430536403990317e+01,1.022623106009291627e+00,1.734025790245738788e-02,5.541885266230817564e+01,9.550349878177001317e-01,1.778696609141704535e-02
8.057218988725085183e+03,4.978303648646060964e+01,4.913071171595500175e+01,9.868966455936648563e-01,2.021963616126678381e-02,4.923978929336254140e+01,9.890877047396293698e-01,2.019736342857950465e-02,4.920803201657075476e+01,9.884497911242068335e-01,2.020384293496897687e-02,4.959006269161518077e+01,9.961019448202426130e-01,2.012595212876481035e-02,4.869524157735017411e+01,9.612076180365520806e-01,2.030904722667940809e-02
8.287425245545802682e+03,4.450366137562127022e+01,4.424172871225866999e+01,9.941143569929712376e-01,2.253638186749197872e-02,4.417994089681526759e+01,9.927259809912327704e-01,2.255208346020934687e-02,4.413688638857726687e+01,9.917585435510948288e-01,2.256303746362665896e-02,4.666078164865230349e+01,1.048446296004696743e+00,2.193813068408860534e-02,4.342897899500255221e+01,9.589499457579950814e-01,2.274468265220148597e-02
8.517631502366519271e+03,4.039713136982499719e+01,4.004773941792939951e+01,9.913510702357302140e-01,2.486174668956578349e-02,3.996308626522097995e+01,9.892555463745570377e-01,2.488793657930286202e-02,3.991980140983012859e+01,9.881840629814765409e-01,2.490134932675883497e-02,4.204641514389138734e+01,1.040801409282289480e+00,2.425873631986422835e-02,3.930428203783537100e+01,9.560957835638050906e-01,2.509365787241827489e-02
8.747837759187235861e+03,3.340151010267436504e+01,3.308146793395280838e+01,9.904183323527060434e-01,3.008288826800371157e-02,3.315516269207000732e+01,9.926246624824117681e-01,3.004957904322899664e-02,3.318864668067544699e+01,9.936271317870183362e-01,3.003446900578674722e-02,3.421400547958910465e+01,1.024298939227360483e+00,2.957863831403452146e-02,3.250015578605234623e+01,9.561618302922072488e-01,3.034824648252366225e-02
8.978044016007952450e+03,2.889577813590726407e+01,2.870002331656794325e+01,9.932254871829852005e-01,3.472475335984840511e-02,2.868338679354037168e+01,9.926497448392654910e-01,3.473478648831779952e-02,2.866960965385360183e+01,9.921729575514488531e-01,3.474309957407668847e-02,2.926114265812981685e+01,1.012616008530368816e+00,3.438924228080564305e-02,2.817318928866617256e+01,9.581062675006428719e-01,3.504531604927577787e-02
9.208250272828669040e+03,2.610550443954386779e+01,2.589415076577057206e+01,9.919038655520808767e-01,3.846179348888446176e-02,2.573146254329358129e+01,9.856719146294793399e-01,3.858250427078756262e-02,2.577637017530910057e+01,9.873921507628021788e-01,3.854910823571959522e-02,2.607793804447529595e+01,9.989163104684349870e-01,3.832580326272448656e-02,2.512818128224146719e+01,9.458908601263411597e-01,3.903681673148824000e-02
9.438456529649385629e+03,2.127894495690570054e+01,2.089710104421657633e+01,9.820553174293914500e-01,4.742028211811940425e-02,2.105022244856638025e+01,9.892512289118406965e-01,4.724874413054132305e-02,2.102005119928542243e+01,9.878333367493270512e-01,4.728244596195384231e-02,2.300532857021864785e+01,1.081098197024539243e+00,4.516210239074262139e-02,2.068508840834393325e+01,9.552550720139445506e-01,4.765986106702978925e-02
9.668662786470102219e+03,1.991036147646831722e+01,1.975664209687348460e+01,9.922794279864526334e-01,5.041973982990990283e-02,1.970135074515234308e+01,9.895024140288463110e-01,5.049011738776518210e-02,1.969990909912369403e+01,9.894300072053763273e-01,5.049195501412219456e-02,2.166250662099231405e+01,1.087966916294306197e+00,4.810756651393597455e-02,1.913515137147271261e+01,9.444192254035584932e-01,5.122227508673804497e-02
9.898869043290818809e+03,1.852931711636483669e+01,1.845892127727468690e+01,9.962008400715438583e-01,5.407124228830316459e-02,1.837996686084402853e+01,9.919397863082118905e-01,5.418690867140584649e-02,1.837621261013878637e+01,9.917371749177508189e-01,5.419242088709824018e-02,1.920627211117082211e+01,1.036500946876447449e+00,5.299953156794551257e-02,1.788479780529936036e+01,9.484985747872265449e-01,5.492375701846651664e-02
1.012907530011153540e+04,1.521637064304904641e+01,1.487299296778181379e+01,9.774336677699100306e-01,6.646867065277801967e-02,1.494491432240043949e+01,9.821602452374139647e-01,6.631017220556253977e-02,1.492022610401761717e+01,9.805377677779747447e-01,6.636449419905615654e-02,1.633522268568260216e+01,1.073492373877467765e+00,6.338718762068139279e-02,1.468294344842433929e+01,9.482309136033723052e-01,6.689116659603756843e-02
1.035928155693225381e+04,1.375148899283479231e+01,1.374893960455322883e+01,9.998146100191119823e-01,7.272613926424255359e-02,1.366438066805986828e+01,9.936655350689432842e-01,7.295044894573422811e-02,1.368785416652612774e+01,9.953725137443791837e-01,7.288804212201781263e-02,1.528098662066109092e+01,1.111184687473634636e+00,6.888721801254876764e-02,1.333252603166243588e+01,9.527408286286705996e-01,7.384429517525446796e-02
1.058948781375297040e+04,1.167132126841996254e+01,1.165108835047765368e+01,9.982664415213164943e-01,8.575443243992446340e-02,1.160168689811551879e+01,9.940337200302368226e-01,8.593646277647176701e-02,1.165704786535855852e+01,9.987770533658408834e-01,8.573252542991022240e-02,1.250042035652173489e+01,1.070996915861023080e+00,8.273974385528574949e-02,1.147541176467328405e+01,9.661850567137560963e-01,8.640528221155739652e-02
1.081969407057368699e+04,1.063993718658816334e+01,1.059495494035008889e+01,9.957723203202013540e-01,9.418460842863578264e-02,1.061393848571875331e+01,9.975564986509335430e-01,9.410048458154539330e-02,1.063718671035276664e+01,9.997414950683295443e-01,9.399766668123531177e-02,1.156204144309644910e+01,1.086624721272830385e+00,9.008048844442047287e-02,1.026371258267596964e+01,9.479326450656933023e-01,9.567707180689170865e-02
1.104990032739440358e+04,8.694505653893335406e+00,8.687845633771175358e+00,9.992339966885664948e-01,1.150592326033194196e-01,8.602730828026929899e+00,9.894445032852087207e-01,1.156254065260931552e-01,8.646957076178528823e+00,9.945311925016099286e-01,1.153305249465372967e-01,9.895397700751439984e+00,1.138072538046561943e+00,1.075831548559088163e-01,8.472384499529233892e+00,9.575750565601969244e-01,1.165033376532242232e-01
1.128010658421512017e+04,8.063143147645812192e+00,8.152665930947190276e+00,1.011102715363241034e+00,1.233364299188908497e-01,8.194907619862965120e+00,1.016341576703326144e+00,1.230159770442431771e-01,8.184392764086002359e+00,1.015037512570466038e+00,1.230955888243869117e-01,9.287505824020819034e+00,1.151798061049086330e+00,1.152672023804444529e-01,8.093714081633248014e+00,9.864056483461057789e-01,1.237864500266579598e-01
1.151031284103583675e+04,7.475576277201374076e+00,7.560401114324728944e+00,1.011346929517935589e+00,1.330142994978929238e-01,7.526235577739065263e+00,1.006776641513536408e+00,1.333172299012238549e-01,7.487316772785215235e+00,1.001570513783619054e+00,1.336639908685167411e-01,8.813419728761626715e+00,1.178910136671363906e+00,1.227798078661408443e-01,7.374635869371039654e+00,9.694110510814487602e-01,1.346782106720018357e-01
1.174051909785655334e+04,5.923904326318958802e+00,6.040964576887128068e+00,1.019760658531922770e+00,1.671560312260574055e-01,5.925016695886482054e+00,1.000187776423494990e+00,1.687917402987077764e-01,5.975644940809335282e+00,1.008734208326171222e+00,1.680735929658164207e-01,7.158105620378513834e+00,1.208287562115567981e+00,1.528785645255074932e-01,5.967523354807017455e+00,9.899155663193867083e-01,1.681883835676343253e-01
1.197072535467726993e+04,4.349234596850016565e+00,4.538751036883929224e+00,1.043574664878085034e+00,2.250228659696625610e-01,4.509336826224357608e+00,1.036811587374545596e+00,2.257700372308900638e-01,4.515540556552318563e+00,1.038237983258652131e+00,2.256120392667142205e-01,5.464293073862791061e+00,1.256320006449256121e+00,2.037959816339136032e-01,4.485615204828671487e+00,1.013494142902937600e+00,2.263762310503552588e-01
1.220093161149798652e+04,3.491095686223097960e+00,3.774933805429311562e+00,1.081303448750007945e+00,2.752534933002547812e-01,3.690385725262553152e+00,1.057085241125275576e+00,2.784940718221889933e-01,3.730094908260155773e+00,1.068459659521857175e+00,2.769626384779170225e-01,5.027065640272096125e+00,1.439893233033849418e+00,2.347874774070550508e-01,3.820371371921325032e+00,1.075364985864987855e+00,2.735429133571969929e-01
1.243113786831870311e+04,3.636398897632772353e+00,3.885529913790064072e+00,1.068510365108588989e+00,2.658892486409590306e-01,3.795263753629025238e+00,1.043687411768733808e+00,2.691187818731823889e-01,3.821698931632218521e+00,1.050957015227364844e+00,2.681648921461122215e-01,4.727696106297734069e+00,1.300043802516262836e+00,2.391125355432900113e-01,3.800680611052630997e+00,1.027074436543636171e+00,2.689227670168508055e-01
1.266134412513941970e+04,2.862617799615923442e+00,3.199007501944582721e+00,1.117511217310879879e+00,3.299445116617683027e-01,3.157999564992620467e+00,1.103185889997724489e+00,3.321918465964558975e-01,3.169330174975255598e+00,1.107144018807010744e+00,3.315678464775803636e-01,4.254902672299996524e+00,1.486294255416508392e+00,2.809911614799505131e-01,3.228213599744312212e+00,1.108181657358337180e+00,3.283623973256056261e-01
1.289155038196013629e+04,2.508419516604653676e+00,2.880762485527368355e+00,1.148437279513241371e+00,3.711138349398437342e-01,2.727981060959918658e+00,1.087529834185176014e+00,3.819417499434681895e-01,2.794815383331720415e+00,1.114173831303436168e+00,3.771283071062899728e-01,3.879497199860769463e+00,1.546497549340579258e+00,3.130837647648576638e-01,2.891463178968013636e+00,1.132738227104933770e+00,3.703784161162960720e-01
1.312175663878085288e+04,2.188231158132354359e+00,2.605493357198105819e+00,1.190684698696038435e+00,4.172121267302587033e-01,2.625184327922761351e+00,1.199683277594559394e+00,4.155053736362827044e-01,2.615283720298773762e+00,1.195158797816820551e+00,4.163617789507541023e-01,3.731163323960370537e+00,1.705014995059833449e+00,3.378658376316672762e-01,2.601661608947647863e+00,1.168341148918536687e+00,4.175458819758157136e-01
1.335196289560157129e+04,1.871517294362842421e+00,2.383706142450427112e+00,1.273675722703892621e+00,4.700105716417554702e-01,2.327852049371698318e+00,1.243831439005865569e+00,4.762619899066511953e-01,2.318046934124859959e+00,1.238592312829274844e+00,4.773766174535855056e-01,3.273228218635687359e+00,1.748871718797178287e+00,3.887381917145140697e-01,2.455714413056989454e+00,1.289424971067932635e+00,4.621892552161311896e-01
1.358216915242228788e+04,1.477102032791742126e+00,1.871256461447995623e+00,1.266843061552962890e+00,5.973076071276861576e-01,1.895630154272784251e+00,1.283344083340010489e+00,5.929910497105640443e-01,1.854614865075310925e+00,1.255576679134388973e+00,6.002910995470200906e-01,2.922585064261827625e+00,1.978461367806679139e+00,4.545675776347432584e-01,2.082326623449183067e+00,1.385321000979200301e+00,5.618879301017312144e-01
1.381237540924300447e+04,1.284360759393834650e+00,1.691105187376390928e+00,1.316690170583008745e+00,6.721636327819301426e-01,1.682093304848032433e+00,1.309673541911940076e+00,6.742056194661276702e-01,1.607423965068419891e+00,1.251536185072376295e+00,6.916144148219444121e-01,3.090472122160147439e+00,2.406107515980325129e+00,4.571532989193043406e-01,1.811707014769163626e+00,1.386158842279422432e+00,6.459806909558647448e-01
1.404258166606372106e+04,1.063647248033319004e+00,1.604709744895088219e+00,1.508686030883070073e+00,7.495248968936071288e-01,1.560989447667733954e+00,1.467581898560823772e+00,7.620102253678925353e-01,1.539583340018373159e+00,1.447456704151736773e+00,7.682761600833979410e-01,2.710602799334477009e+00,2.548272070265119815e+00,5.298988899334010627e-01,1.663083436140387228e+00,1.536485546897449206e+00,7.334791116732781724e-01
1.427278792288443765e+04,1.030798267996014594e+00,1.488413319293390602e+00,1.443942394458064049e+00,7.938991746826391527e-01,1.780555790926956927e+00,1.727356211403569208e+00,7.114009683882360768e-01,1.433684836246301275e+00,1.390849093133948111e+00,8.115291991887617629e-01,2.773271922668328227e+00,2.690215108840166014e+00,5.257422508919724624e-01,1.758765404150650191e+00,1.676664990280750889e+00,7.169580031349245264e-01
1.450299417970515424e+04,8.001412375224754570e-01,1.426423499807715434e+00,1.782714642010496453e+00,8.982447114464509053e-01,1.844071218846365712e+00,2.304682139063688684e+00,7.563688746654252393e-01,1.384525055270642069e+00,1.730350831007821499e+00,9.154716244754158572e-01,2.995547517836093743e+00,3.743526341814000791e+00,5.269062749089723496e-01,1.600750638833269512e+00,1.965934717960186484e+00,8.330237690819093377e-01
1.473320043652587083e+04,6.989405333276903498e-01,1.224132541787663619e+00,1.751411577118740404e+00,1.040002080981780486e+00,1.519196681754543699e+00,2.173570724996550574e+00,9.016574747499797038e-01,1.199591154510384117e+00,1.716299309183102695e+00,1.053445677421097626e+00,2.999848134074992068e+00,4.291816610122930697e+00,5.407133690062129183e-01,1.259270672550239833e+00,1.770479587940203547e+00,1.021340289544168112e+00
1.496340669334658742e+04,5.865634663117816894e-01,9.023691634763963965e-01,1.538399875379813375e+00,1.343244119973734829e+00,1.203058514057192996e+00,2.051028717526228728e+00,1.117554445541426800e+00,9.021551507641560885e-01,1.538035016801787558e+00,1.343437219807389615e+00,2.635947861662134351e+00,4.493570866886558157e+00,6.206261256846938856e-01,9.973103670054115355e-01,1.670811230748669329e+00,1.262726839682231095e+00
1.519361295016730401e+04,4.862191138490743469e-01,7.468467160069849342e-01,1.536029116779664472e+00,1.621973419078094114e+00,1.029616151165100746e+00,2.117597029483913929e+00,1.319404585815132869e+00,7.468378538105753250e-01,1.536010890025188980e+00,1.621985076485162880e+00,2.567510077205952257e+00,5.280283287477672616e+00,6.549314356011437521e-01,8.174173931183759123e-01,1.652052745436791037e+00,1.534169984739417014e+00
1.542381920698802060e+04,3.709040051780903013e-01,5.975883818937290926e-01,1.611167238829884996e+00,2.065065277432777791e+00,7.553745801415061578e-01,2.036577037713064087e+00,1.775759590982965763e+00,5.975086496182484552e-01,1.610952271414145320e+00,2.065235300359234305e+00,2.354387106315698475e+00,6.347201344562776626e+00,7.338587314537478035e-01,6.943296404642751440e-01,1.839569686405600368e+00,1.877522370966741683e+00
1.565402546380873719e+04,3.118250366075147606e-01,5.514968893047972331e-01,1.768610036271560215e+00,2.316632926803646519e+00,6.316341816974406775e-01,2.025604449755779246e+00,2.119858454076323895e+00,5.514633470352311440e-01,1.768502468675542172e+00,2.316722937427661222e+00,2.176419321508681115e+00,6.979118985051576907e+00,8.037724028262126508e-01,6.190714480996620805e-01,1.950930752784222122e+00,2.148466594144590402e+00
1.588423172062945378e+04,2.873585172509774410e-01,4.383342948183417409e-01,1.525391691924352644e+00,2.755987060553877210e+00,5.899999932572245198e-01,2.053184290138585055e+00,2.279569840659000590e+00,4.379951754119247309e-01,1.524211565406227376e+00,2.757275547405907634e+00,2.241380273848772031e+00,7.799453033445799655e+00,7.909024591291026196e-01,5.021702226717025264e-01,1.717271429791939363e+00,2.533156677989788719e+00
1.611443797745017037e+04,2.261665969625955286e-01,3.907638890577443402e-01,1.727770123022944082e+00,3.241856327933291926e+00,5.587294561464303255e-01,2.470433139332399275e+00,2.548108111995041725e+00,3.908186025652742313e-01,1.728012039858872972e+00,3.241568844002161942e+00,1.816690981844622632e+00,8.031930451297888851e+00,9.790126327160004749e-01,4.240798464629287889e-01,1.842600703313786337e+00,3.075756922965883433e+00
1.634464423427088877e+04,2.105256418792784967e-01,3.515746354506435467e-01,1.669984864134729241e+00,3.558083994372608139e+00,5.681280246829952807e-01,2.698616755714614346e+00,2.568536033266142216e+00,3.513036376838995500e-01,1.668697620622134448e+00,3.559800232474531700e+00,1.961939568377353948e+00,9.318341099704889885e+00,9.206045097770757524e-01,3.943768380506133542e-01,1.840850257327089290e+00,3.306318070033040346e+00
1.657485049109160536e+04,1.871226569713579369e-01,3.073756775879503689e-01,1.642642759369321137e+00,4.044503004812703750e+00,4.640286845590352316e-01,2.479810259588512089e+00,3.071482576230933237e+00,3.069084668532013893e-01,1.640145943952572960e+00,4.048327936339171984e+00,1.762445654558098873e+00,9.417410201390977065e+00,1.025855021701898906e+00,3.624468212339865270e-01,1.903399635561001224e+00,3.639212291285048639e+00
1.680505674791232013e+04,1.268768146147545572e-01,2.508037741630314010e-01,1.976750243332995316e+00,5.295479988718006403e+00,3.891139583071120400e-01,3.066864182306337838e+00,3.876038303310606281e+00,2.505101225195595638e-01,1.974435780723230893e+00,5.299600498064374499e+00,1.803172691796834703e+00,1.421093836766500118e+01,1.036237791443061163e+00,2.814178300591615445e-01,2.179623116979576114e+00,4.898423298197548625e+00
1.703526300473303854e+04,8.938255758540755713e-02,2.057873608192076487e-01,2.302321240053709861e+00,6.775758216860110927e+00,3.308211038883372979e-01,3.701181895273341294e+00,4.759596794053551072e+00,2.054217242151246958e-01,2.298230547037529714e+00,6.784161979550966670e+00,1.802012697516663708e+00,2.015920272547930736e+01,1.057416795050729830e+00,2.264368253684527210e-01,2.489466819053626878e+00,6.332733543121990216e+00
1.726546926155375331e+04,8.501767238402473115e-02,1.435940361299019863e-01,1.688990442849198415e+00,8.748458305136033175e+00,2.841891863150521891e-01,3.342707208348048020e+00,5.417017460204078816e+00,1.429172653613412503e-01,1.681030088847694115e+00,8.774433703683763852e+00,1.817690296683992734e+00,2.137802798966805895e+01,1.051128805579282677e+00,1.652851221018603878e-01,1.910454128153674658e+00,7.990322297871039758e+00
1.749567551837447172e+04,6.908450836259551198e-02,1.449381686136897163e-01,2.097983644219775901e+00,9.344804149990189046e+00,2.809393035151578344e-01,4.066603500174390540e+00,5.713896975382077414e+00,1.441983231022183343e-01,2.087274361791532584e+00,9.377219845892510008e+00,1.497883595205072638e+00,2.168145091873701702e+01,1.276349000692073243e+00,1.736177639907290071e-01,2.469593932241482381e+00,8.240549132924522624e+00
1.772588177519519013e+04,4.982467684330361968e-02,1.074428591845472403e-01,2.156418585963943535e+00,1.271718277347344817e+01,1.952829444675113768e-01,3.919402128420571785e+00,8.159680997694676918e+00,1.070930691238379806e-01,2.149398167912676794e+00,1.274553102756649281e+01,1.542663746033654082e+00,3.095715303113334471e+01,1.255890154125330005e+00,1.522940533997660384e-01,3.003658244906630248e+00,9.895173978160181960e+00
1.795608803201590490e+04,4.460516912998476607e-02,1.174436088961859498e-01,2.632959614029067197e+00,1.234196286057153813e+01,1.643853743444196880e-01,3.685343594716144811e+00,9.569810991208530737e+00,1.167393733727900978e-01,2.617171409721543274e+00,1.239583297318905863e+01,1.512368750448028321e+00,3.390367250933653054e+01,1.284540854023094258e+00,1.500763317647700601e-01,3.306275793972591082e+00,1.027318975253433919e+01
1.818629428883662331e+04,3.893833885040993981e-02,8.208053246758376109e-02,2.107961841487740351e+00,1.652634814899839455e+01,1.393569939089222554e-01,3.578914715501663402e+00,1.121734354482320484e+01,8.129331369463425883e-02,2.087744780457639227e+00,1.663455469224886230e+01,1.490996072928492788e+00,3.829601661353815700e+01,1.307249762448418506e+00,1.185693775769323111e-01,2.992314120448317905e+00,1.269779059315226100e+01
1.841650054565733808e+04,3.432449910074605176e-02,7.591255379485942201e-02,2.211614321655445359e+00,1.814272014232819430e+01,1.122491692991128970e-01,3.270234737283409743e+00,1.364501565549903894e+01,7.520095986269768884e-02,2.190882950453985512e+00,1.826059455881886961e+01,1.614220884584245175e+00,4.702606823975767014e+01,1.213189578607025698e+00,1.129493970379588097e-01,3.233640761020663223e+00,1.358013913148850627e+01
1.864670680247805649e+04,3.316261943109566346e-02,6.476890054182149470e-02,1.953069499723821378e+00,2.042243396766533792e+01,8.640415819536428899e-02,2.605468436378868269e+00,1.672705445193333418e+01,6.425549884443171322e-02,1.937588162417023252e+00,2.053006191664887226e+01,1.826970070134848356e+00,5.506669446029648185e+01,1.075183570240837883e+00,1.034554785874206573e-01,3.065608764897643557e+00,1.463934887842555987e+01
1.887691305929877126e+04,2.298781397985294461e-02,6.181474169716238976e-02,2.689022181549679757e+00,2.358419488697172284e+01,8.535571255594152917e-02,3.713085229885245031e+00,1.845980155851066229e+01,6.073257476303049046e-02,2.641946503319451356e+00,2.388904339828460266e+01,1.705589283935048384e+00,7.416452494807690243e+01,1.157014601854162272e+00,9.859894431958143857e-02,4.214893960393727212e+00,1.644915966156903409e+01
1.910711931611948967e+04,1.844085947695103464e-02,5.799435845322229582e-02,3.144883703805053887e+00,2.616594881468227385e+01,8.156157953833992336e-02,4.422873003304567341e+00,1.999951220883910707e+01,5.703080056065863018e-02,3.092632457393897916e+00,2.650001336930105111e+01,1.537895048206502802e+00,8.334626125997394297e+01,1.285060528075943953e+00,9.569877834821288731e-02,5.099613913812022226e+00,1.752239658464263883e+01
1.933732557294020444e+04,1.398495697139878757e-02,5.526953813387081027e-02,3.952070660417819958e+00,2.887899185402940461e+01,6.866792538494337350e-02,4.910127755514656300e+00,2.419758322979446774e+01,5.412130139302462339e-02,3.869965528225101536e+00,2.936587691102316811e+01,1.255675393855199218e+00,8.978980907622859320e+01,1.575224861640962093e+00,9.369455761043354869e-02,6.583628135215893629e+00,1.857363499238358884e+01
1.956753182976092285e+04,9.064720557944383472e-03,3.934479653253220022e-02,4.340431266582195136e+00,4.131419027093439666e+01,5.092291004257276654e-02,5.617703239394796100e+00,3.334020663891262615e+01,3.864547953708097339e-02,4.263284156422429305e+00,4.191975711727387477e+01,1.870979372411966324e+00,2.065846398558323074e+02,1.063809364390890577e+00,8.172140063834376633e-02,8.859178313699674234e+00,2.202979897858849512e+01
1.979773808658163762e+04,8.773419736826326698e-03,3.950050621642731130e-02,4.502292994215744137e+00,4.143023299859043362e+01,5.910112173296511173e-02,6.736383702798218742e+00,2.946612907713165797e+01,3.771092710667289793e-02,4.298315621260170971e+00,4.302523614526590734e+01,1.465921522583812475e+00,1.670561922287478751e+02,1.356211222406095152e+00,8.914720395114272833e-02,9.985064648420106437e+00,2.042470650894892614e+01
2.002794434340235603e+04,8.569801475719682551e-03,3.632601869425603619e-02,4.238840164171413072e+00,4.454757686635400660e+01,3.736723552823865285e-02,4.360338525239943586e+00,4.353785377641276000e+01,3.529351926408708096e-02,4.118359026645149967e+00,4.559618301276865537e+01,2.124842611806733395e+00,2.480402499535228458e+02,9.374666902651221934e-01,8.426884654909372330e-02,9.662919246280793573e+00,2.154275231868360407e+01
2.025815060022307080e+04,9.339763472477594433e-03,4.629489632012943195e-02,4.956752540527518569e+00,3.594881333786404554e+01,3.625632853557666374e-02,3.881932196935904411e+00,4.386340828610295972e+01,4.451407399028539658e-02,4.766081509607756672e+00,3.713755777167953198e+01,1.360311201463143105e+00,1.456438835969991317e+02,1.460225805171488700e+00,8.813369181007146835e-02,9.272954880578177850e+00,2.051840672111748987e+01
2.048835685704378920e+04,6.092605452674130888e-03,2.426101732999086380e-02,3.982043071464993034e+00,6.588999324134064750e+01,3.218039924589296413e-02,5.281878089080678684e+00,5.225615327962160706e+01,2.282039533990124977e-02,3.745588897420733865e+00,6.917303445423013386e+01,1.435254837075869316e+00,2.358653645841395132e+02,1.387597752230047554e+00,8.095491211861371994e-02,1.305726483713181629e+01,2.297595676249001784e+01
2.071856311386450761e+04,1.778602600097656250e-03,5.273818969726562500e-02,2.965147453083109852e+01,3.668594419662380801e+01,5.933490395545959473e-02,3.336040549597855431e+01,3.272598992796844186e+01,5.050545930862426758e-02,2.839614611260053678e+01,3.825257501017463824e+01,1.004808783531188965e+00,5.776415818981320172e+02,1.986988631188888910e+00,9.291255474090576172e-02,5.133428777141018173e+01,2.112129639304719575e+01
