# uv,sd,feather,feather_ratio,feather_ratio_err,smclean,smclean_ratio,smclean_ratio_err,int,int_ratio,int_ratio_err,joint,joint_ratio,joint_ratio_err,tp2vis,tp2vis_ratio,tp2vis_ratio_err,
0.000000000000000000e+00,4.472659301757812500e+02,6.247976779937744141e+00,1.000000007066528918e+00,4.410008093082093232e-03,9.743585586547851562e-01,1.559478531784534994e-01,4.461892539037065272e-03,5.090116977691650391e+00,8.146824472852519650e-01,4.421296040111188583e-03,6.258733749389648438e+00,1.001721647130113579e+00,4.409903493870377493e-03,5.030063152313232422e+00,7.911286360739244738e-01,4.421883079891014527e-03
4.604125136414334634e+02,2.344211463928222656e+02,9.088600635528564453e+00,2.775406805354412310e+00,8.213223595387121947e-03,1.736591482162475586e+01,5.303069208336866680e+00,7.943219919059303982e-03,1.242378771305084229e+01,3.793880526809453091e+00,8.102252562907323943e-03,5.774861454963684082e+00,1.763482620322276206e+00,8.326533059064892411e-03,1.227721047401428223e+01,3.684193233202262885e+00,8.107066562585842073e-03
9.208250272828669267e+02,4.511931085586547852e+01,9.815452903509140015e+00,1.557307229662900205e+01,3.640681898188194432e-02,1.324059092998504639e+01,2.100735257249613142e+01,3.427010565128990605e-02,1.050281202793121338e+01,1.666362751029068079e+01,3.595691599506751351e-02,4.714143872261047363e+00,7.479400592573709261e+00,4.013368313002815824e-02,1.037889909744262695e+01,1.618185543213667898e+01,3.603719834716552495e-02
1.381237540924300447e+03,4.238997435569762828e+00,6.039866089820861816e+00,1.019977449267514515e+02,1.945740397330544824e-01,6.983990836143493475e+00,1.179415744127634156e+02,1.782056571368659248e-01,6.077939176559448597e+00,1.026407010671667592e+02,1.938559938081503564e-01,3.602048563957214178e+00,6.082925478183585000e+01,2.550679104132941299e-01,6.006231331825256703e+00,9.967319647289522777e+01,1.952128200753222853e-01
1.841650054565733853e+03,1.193633520354827199e-01,3.378477364778518677e+00,2.026172520545517045e+03,5.717813250860932506e-01,3.296677261590957642e+00,1.977114586049842501e+03,5.854731328492071007e-01,3.379641736547152053e+00,2.026870828637173872e+03,5.715910521325229254e-01,2.620963573455810547e+00,1.571861705414376729e+03,7.298397761181987242e-01,3.339768494168917190e+00,1.968270764638849187e+03,5.781797540312142436e-01
2.302062568207167260e+03,4.584900561676476943e-02,2.200860676169395624e+00,3.436283949730695895e+03,8.901906713687977035e-01,2.063057354092598050e+00,3.221126602880257906e+03,9.483588452337107233e-01,2.200529974699020563e+00,3.435767613477744817e+03,8.903217211010625576e-01,1.968662539124488742e+00,3.073727029248079361e+03,9.927963666347182636e-01,2.174568003416061490e+00,3.336434146289161163e+03,9.007317057398889215e-01
2.762475081848600894e+03,3.746771029121494928e-02,1.757279182473818535e+00,3.357453640010677645e+03,1.114363260949151613e+00,1.671030923724174500e+00,3.192667911498304420e+03,1.170618436667702378e+00,1.757412087586190941e+00,3.357707568218421784e+03,1.114280745911322867e+00,1.653514080577426437e+00,3.159037145080948449e+03,1.182743494888060853e+00,1.736677984396616692e+00,3.260630826371899730e+03,1.127303132988696444e+00
3.222887595490034073e+03,2.250309015600275228e-02,1.551288165772954697e+00,4.934881552963068316e+03,1.270816566342825027e+00,1.554702475046118026e+00,4.945742985558248620e+03,1.268065523052917642e+00,1.551244711503386497e+00,4.934743318379693847e+03,1.270851656085658865e+00,1.680099374925096756e+00,5.344501094176005608e+03,1.174671896818893835e+00,1.532943031440178627e+00,4.792072061110637151e+03,1.285804742595405559e+00
3.683300109131467707e+03,1.582994669297477230e-02,1.281370232680014265e+00,5.794575051878820886e+03,1.541782087146113644e+00,1.363025984327707940e+00,6.163836307738115465e+03,1.450477859945471071e+00,1.281397734635642660e+00,5.794699420419542548e+03,1.541749400499691003e+00,1.669377315257276839e+00,7.548158626799514423e+03,1.186796087682330469e+00,1.266279748241816216e+00,5.627165568167640231e+03,1.559928926441603192e+00
4.143712622772901341e+03,1.319222000997147606e-02,1.273399227964026492e+00,6.909921451990187961e+03,1.554495021049152825e+00,1.343220102467707289e+00,7.288794587716109163e+03,1.474477905322120197e+00,1.273398614355496061e+00,6.909918122329971993e+03,1.554495762428136807e+00,1.686743477625506360e+00,9.152580287514874726e+03,1.176514795357718635e+00,1.258374969341925276e+00,6.710141373821896195e+03,1.572862226037286426e+00
4.604125136414334520e+03,9.274885623760971767e-03,1.126258048502837950e+00,8.692721359923467389e+03,1.761287532834360681e+00,1.138853305841193375e+00,8.789934483189845196e+03,1.741965762070609491e+00,1.126261040130082325e+00,8.692744449997791889e+03,1.761282892632629604e+00,1.590718722518752681e+00,1.227574273611024182e+04,1.250003934913490378e+00,1.112973290769492918e+00,8.441423019277593994e+03,1.782137001485460726e+00
5.064537650055767699e+03,8.541216605323143085e-03,1.076264296192675829e+00,9.020396161576722079e+03,1.843648447952180414e+00,1.042252758983522654e+00,8.735338354887348032e+03,1.903322674532118786e+00,1.076264115283265710e+00,9.020394645337120892e+03,1.843648755411356088e+00,1.533382572699338198e+00,1.284957604761726907e+04,1.297079835712801277e+00,1.063566238153725863e+00,8.759600338305790501e+03,1.865484649996665079e+00
5.524950163697201788e+03,6.028296651095388370e-03,9.809016507118940575e-01,1.164815828560073533e+04,2.026486282378871628e+00,9.484286248683929665e-01,1.126254271979657278e+04,2.095432444259521798e+00,9.809056226164102332e-01,1.164820545176919404e+04,2.026478126807500946e+00,1.321841560304164886e+00,1.569317940227635154e+04,1.506170121606529078e+00,9.693328261375426802e-01,1.131143721587530672e+04,2.050522573917888725e+00
5.985362677338634967e+03,4.678387331266450032e-03,8.166410893039859342e-01,1.249572522370320439e+04,2.435106017689385727e+00,8.060575045807205630e-01,1.233378190696852471e+04,2.466894607667275530e+00,8.166353402902251091e-01,1.249563725593228810e+04,2.435123062890913292e+00,1.076138924726325552e+00,1.646247621817716936e+04,1.850449577552782943e+00,8.070005752632151141e-01,1.213436778989178492e+04,2.464028380884880409e+00
6.445775190980068146e+03,4.386781979395560499e-03,7.587317267263476994e-01,1.238136731304023124e+04,2.620824914064815658e+00,7.656851573423906210e-01,1.249483690381960696e+04,2.597159950746198653e+00,7.587432448159564524e-01,1.238155527104062639e+04,2.620785357377031222e+00,9.442603093656626312e-01,1.540508161889996336e+04,2.108263142676360502e+00,7.497915505346927079e-01,1.202358494705472185e+04,2.651892680784009748e+00
6.906187704621502235e+03,3.686899995955172926e-03,6.733275922015309334e-01,1.307348785393538492e+04,2.954146510968035599e+00,6.862589478647956875e-01,1.332456611532944589e+04,2.898778224698661088e+00,6.733171090794106695e-01,1.307328431115576677e+04,2.954192254683317476e+00,8.023396562784910202e-01,1.557431831849646733e+04,2.481304837160600574e+00,6.653732621343806386e-01,1.269531472381405183e+04,2.989267801615711040e+00
7.366600218262935414e+03,3.397325256069431369e-03,6.134214388439431787e-01,1.292552632509964315e+04,3.242443512428093033e+00,6.219103297529121610e-01,1.310439745018056965e+04,3.198425581358464331e+00,6.134296012654280039e-01,1.292569831712192536e+04,3.242400605431897898e+00,6.817114211153239012e-01,1.436022414045826372e+04,2.919240300013612011e+00,6.061923454981297255e-01,1.255199637634171449e+04,3.280895487493335594e+00
7.827012731904368593e+03,2.620738885729349734e-03,5.374663350140226337e-01,1.468094217235376891e+04,3.703106585311888299e+00,5.373155539855360985e-01,1.467682357474924902e+04,3.704140704016077201e+00,5.374755561351776123e-01,1.468119404812276298e+04,3.703043361781588771e+00,5.667893534911603304e-01,1.547588634699018075e+04,3.512400725404878354e+00,5.311343855513580570e-01,1.425673741078728017e+04,3.747036624911571856e+00
8.287425245545802682e+03,2.372438516204056214e-03,4.472864557523280604e-01,1.349637682059485451e+04,4.447815945581226948e+00,4.424678268531958003e-01,1.335097999369583340e+04,4.495995879193129596e+00,4.472695315877596722e-01,1.349586615254432218e+04,4.447983357820381123e+00,4.305945582066972865e-01,1.298615888237513354e+04,4.619276944863202061e+00,4.419926539218674288e-01,1.310568031068612800e+04,4.500803582537771241e+00
8.747837759187235861e+03,2.231981997207791672e-03,4.282491782757764098e-01,1.373511388977751449e+04,4.645964062008486550e+00,4.236306181410327554e-01,1.358698412636991270e+04,4.696350417601296456e+00,4.282668470405042171e-01,1.373568057503492491e+04,4.645773379850003160e+00,3.712048091615239853e-01,1.189996686066643815e+04,5.355643694769128160e+00,4.232141506314898716e-01,1.333856095635997735e+04,4.700947656152448140e+00
9.208250272828669040e+03,2.038160192759894216e-03,3.896235366381944898e-01,1.368463703612129757e+04,5.106447774144283080e+00,3.885427941718408995e-01,1.364667842481875596e+04,5.120577380055847172e+00,3.896086298890651944e-01,1.368411347059704167e+04,5.106642134312267878e+00,3.153389293940798144e-01,1.107063915196343805e+04,6.301634104183580831e+00,3.850120287989416412e-01,1.328848491897707936e+04,5.167288524545535111e+00
9.668662786470102219e+03,1.686407662690372639e-03,3.331916492639316330e-01,1.414353453490440916e+04,5.972323234180247020e+00,3.348635450367712374e-01,1.421450424754323467e+04,5.942654229953185485e+00,3.332041373165945397e-01,1.414406463583731602e+04,5.972100526527891695e+00,2.510248013422824442e-01,1.064962969179680476e+04,7.914142182678500781e+00,3.292729735322710294e-01,1.373513724992419156e+04,6.043037646429007204e+00
1.012907530011153540e+04,1.707896471443478637e-03,2.381303727572016971e-01,9.981128903708100552e+03,8.338952771933733743e+00,2.402164981536129007e-01,1.006856792398002835e+04,8.267045591246290570e+00,2.381179520093342772e-01,9.980608293572946423e+03,8.339384652110599205e+00,1.886482636636013510e-01,7.902147703691103743e+03,1.050656167250866169e+01,2.353085995761348970e-01,9.692052158829925247e+03,8.438231234329455432e+00
1.058948781375297040e+04,1.608477335113483271e-03,2.008509147912263815e-01,8.938924771051573771e+03,9.878524177094972103e+00,2.016485670847552036e-01,8.974424504038712257e+03,9.839757365892785046e+00,2.008648065584046627e-01,8.939543027940633692e+03,9.877846407883675184e+00,1.421819081663021067e-01,6.322832939088721105e+03,1.390901248866008899e+01,1.984950001750673543e-01,8.681087047533301302e+03,9.994828800005457481e+00
1.104990032739440358e+04,1.426294796182877482e-03,1.393799617010364755e-01,6.995478997685751892e+03,1.420391429864834265e+01,1.389420627567329036e-01,6.973500853692893543e+03,1.424822541822535982e+01,1.393679094372170246e-01,6.994874094675344168e+03,1.420513018195354249e+01,9.530478762769091505e-02,4.779385972568327816e+03,2.067562477648860408e+01,1.377236623513071190e-01,6.792642374410492266e+03,1.437298322614737778e+01
1.151031284103583675e+04,1.268426928828738547e-03,1.185560579622341737e-01,6.690902644290386888e+03,1.669107947193161223e+01,1.178993742214515805e-01,6.653841636584947992e+03,1.678305700612732565e+01,1.185682203143923752e-01,6.691589046281264928e+03,1.668938547605382539e+01,7.448932301763090680e-02,4.200220026741928450e+03,2.639954938911718330e+01,1.171693509400245636e-01,6.498124910868069492e+03,1.688650391781758486e+01
1.197072535467726993e+04,1.187712648562534246e-03,9.326520270869051443e-02,5.621272913705568499e+03,2.117457139819686773e+01,9.292980995748868767e-02,5.601058148358703875e+03,2.125002809913965507e+01,9.325632989004423168e-02,5.620738131882595553e+03,2.117656070452979122e+01,5.533823591461193431e-02,3.331428975556259502e+03,3.538110719458853737e+01,9.215607087455944535e-02,5.458232780429633749e+03,2.142617241891191071e+01
1.243113786831870311e+04,1.238858594045423762e-03,8.580319913354043926e-02,4.958018656268391169e+03,2.297739796385981847e+01,8.585744299045650063e-02,4.961153062179751032e+03,2.296308756646314109e+01,8.581340780393674483e-02,4.958608550104421738e+03,2.297470339090860492e+01,4.679133833908453305e-02,2.701808251968442619e+03,4.163968974392248867e+01,8.480097427069800686e-02,4.815247214879614148e+03,2.324504747869565691e+01
1.289155038196013629e+04,1.205566400723715207e-03,7.116990906416460760e-02,4.226021373267920353e+03,2.763366992967479163e+01,7.141755968179841485e-02,4.240726700519076076e+03,2.753943692436741486e+01,7.116403573378365932e-02,4.225672618856842746e+03,2.763591260710216702e+01,3.780097834533080459e-02,2.242217791062693323e+03,5.127176568842681093e+01,7.032444460769295136e-02,4.103502100966482431e+03,2.796029207607234568e+01
1.335196289560157129e+04,1.041036562781982866e-03,5.669698738832570223e-02,3.898705351381115634e+03,3.463921802543141126e+01,5.690501292398645466e-02,3.913009996239044085e+03,3.451486370018521654e+01,5.670724640973882208e-02,3.899410801591535801e+03,3.463306434498993980e+01,2.978284193644261182e-02,2.045825795387673452e+03,6.488244967754862103e+01,5.603822326156659983e-02,3.786673488721774902e+03,3.503899675914946243e+01
1.381237540924300447e+04,1.057315168688372593e-03,3.615603708795846194e-02,2.447951303756143716e+03,5.374415038469885531e+01,3.614807047167832577e-02,2.447411922499783941e+03,5.375565836979422585e+01,3.615576336705225019e-02,2.447932771430612775e+03,5.374454569995160114e+01,2.499139581638527147e-02,1.689885562817167965e+03,7.677524499353002341e+01,3.572919072974671539e-02,2.377158837318021597e+03,5.436776206802181832e+01
1.427278792288443765e+04,9.524357532746727381e-04,2.281482577214214574e-02,1.714777911306970509e+03,8.414936646618672000e+01,2.279971494247617567e-02,1.713642171012851350e+03,8.420290127065381114e+01,2.281539874205079296e-02,1.714820976117239297e+03,8.414733788193238695e+01,2.097496955838533406e-02,1.575165638081818997e+03,9.120672366986278234e+01,2.254620636645435910e-02,1.665241680652016157e+03,8.511130089175817659e+01
1.473320043652587083e+04,6.255907845428167581e-04,1.480274683520960838e-02,1.693863395430504852e+03,1.296315941024950007e+02,1.482220238049413580e-02,1.696089673861290066e+03,1.294683310834720089e+02,1.480292572839050913e-02,1.693883865996825534e+03,1.296300910280941139e+02,1.715164990866513417e-02,1.958074709075542387e+03,1.124941569661136498e+02,1.462828798755352530e-02,1.644911905356196712e+03,1.311141926510236715e+02
1.519361295016730401e+04,8.680961259699415677e-05,1.155901664697012166e-02,9.531900164787241010e+03,1.717353458160161210e+02,1.155891834241629113e-02,9.531819100002798223e+03,1.717367954777815839e+02,1.155885362049957621e-02,9.531765728434313132e+03,1.717377499218824539e+02,1.042444212021109706e-02,8.474371733262121779e+03,1.902496899393843535e+02,1.142247116149519570e-02,9.256178836348124605e+03,1.737728046831625477e+02
1.565402546380873719e+04,7.773972173884929058e-05,7.872124621269082495e-03,7.248954816908942121e+03,2.515766198902552162e+02,7.869559480417181660e-03,7.246592736653734391e+03,2.516578209937557062e+02,7.872063341628451547e-03,7.248898388261341097e+03,2.515785591238104644e+02,7.699146946012455466e-03,6.990290365129932070e+03,2.571357788643416029e+02,7.779170791881399177e-03,7.039305433462489418e+03,2.545529819301015380e+02
1.611443797745017037e+04,8.193652497755552324e-05,5.853692195419820700e-03,5.114212330956024744e+03,3.369482988595864867e+02,5.855179587212789964e-03,5.115511824881331449e+03,3.368638851265706080e+02,5.853714152181055397e-03,5.114231513983642799e+03,3.369470524430183787e+02,5.532834454026583186e-03,4.759645521552951323e+03,3.561222462793527939e+02,5.784640464601882755e-03,4.966361344264035324e+03,3.409143020798190378e+02
1.657485049109160536e+04,7.324090589740397635e-05,3.971709516759880897e-03,3.881952205694164149e+03,4.944436373798922091e+02,3.971735298957513802e-03,3.881977405235708375e+03,4.944404858549062283e+02,3.971627965296172999e-03,3.881872497225283496e+03,4.944536062079638441e+02,3.762438659538494459e-03,3.615465679259255467e+03,5.212494608099727884e+02,3.924751486603940062e-03,3.769623186468920267e+03,5.002510769533255939e+02
1.703526300473303854e+04,8.429289988498567254e-05,2.518529752705944702e-03,2.138860720037030205e+03,7.683965705497214458e+02,2.518083098948409315e-03,2.138481399452699861e+03,7.685284528048864559e+02,2.518462399166310206e-03,2.138803520061478594e+03,7.684164549502597765e+02,2.932013628196727950e-03,2.457531793167654996e+03,6.628177758813130822e+02,2.488737384737760294e-03,2.076957268907016442e+03,7.772936105543107033e+02
1.749567551837447172e+04,8.066360300397397995e-05,1.845704557661734160e-03,1.637989003334079143e+03,1.038223139708064082e+03,1.845098473816452747e-03,1.637451128152729552e+03,1.038549893609986157e+03,1.845524454598917617e-03,1.637829169066380928e+03,1.038320215986057974e+03,1.809499309328042350e-03,1.572837895344486242e+03,1.057162704268356947e+03,1.823753020931583079e-03,1.590478828100730652e+03,1.050190370564459727e+03
1.795608803201590490e+04,7.217386401710730603e-05,1.678252165826658480e-03,1.664576170820653033e+03,1.142578987001530095e+03,1.678752062919860013e-03,1.665071994276835539e+03,1.142252775649257501e+03,1.678080635125904106e-03,1.664406037915209026e+03,1.142690963502320983e+03,1.292433464641362661e-03,1.262575754088450367e+03,1.464437530627310025e+03,1.658256832646050729e-03,1.616260365684316639e+03,1.155781623532604272e+03
1.841650054565733808e+04,9.468144929769550799e-05,1.608425111044198275e-03,1.216080603654661900e+03,1.174324640965804065e+03,1.607325310033047572e-03,1.215249078040968925e+03,1.175083464877914366e+03,1.608321093954145908e-03,1.216001959541987617e+03,1.174396367125235884e+03,9.215007167995281634e-04,6.873146902006038772e+02,1.965645320501734204e+03,1.589404411788564175e-03,1.180888795232500570e+03,1.187587905233033098e+03
1.887691305929877126e+04,7.137482510767189563e-05,1.578666142780672322e-03,1.583330769578506988e+03,1.212091117082698247e+03,1.579224740536036738e-03,1.583891017872885413e+03,1.211680919848073700e+03,1.578725715675814625e-03,1.583390518499039217e+03,1.212047357460035300e+03,5.829616751394827356e-04,5.747921982724200234e+02,3.050804260066762708e+03,1.560126685283400776e-03,1.537638671790224635e+03,1.225864632831751351e+03
1.933732557294020444e+04,9.051233200807473622e-05,1.515623662271536887e-03,1.198698705798519768e+03,1.245224568232807314e+03,1.514636933279689401e-03,1.197918307078874250e+03,1.245990041705840213e+03,1.515427953563630581e-03,1.198543920820744233e+03,1.245376318141251204e+03,5.057536518506822176e-04,3.920106292008703122e+02,3.343865523559140911e+03,1.497386190749239177e-03,1.163765702741377709e+03,1.259526330767718491e+03
1.979773808658163762e+04,1.013874784803192597e-04,1.474935538135469047e-03,1.041394144987390291e+03,1.268775485048619657e+03,1.475343882339075121e-03,1.041682460816645062e+03,1.268446895710022318e+03,1.475008652778342323e-03,1.041445768369587313e+03,1.268716638122624090e+03,4.739417272503487766e-04,3.281400709852682098e+02,3.464193523144980190e+03,1.457611867226660208e-03,1.011339705297281625e+03,1.282874175353187411e+03
2.025815060022307080e+04,8.734490256756544113e-05,1.466397661715745926e-03,1.201823269872315677e+03,1.287214527023356595e+03,1.465079025365412235e-03,1.200742548120157380e+03,1.288307893233107507e+03,1.465550885768607259e-03,1.201129273240836710e+03,1.287916430079877046e+03,4.515189139056019485e-04,3.755573622833618970e+02,3.720350109618220813e+03,1.448560709832236171e-03,1.166644724312824337e+03,1.302163351610563041e+03
2.071856311386450761e+04,6.455928087234497070e-05,1.464736415073275566e-03,1.624154009339765253e+03,1.307791557448492995e+03,1.464541070163249969e-03,1.623937403665490365e+03,1.307958629821440127e+03,1.463825814425945282e-03,1.623144301601875441e+03,1.308570730081391048e+03,4.264046438038349152e-04,4.286160839751723870e+02,4.019122838242876696e+03,1.446403563022613525e-03,1.576051060743096059e+03,1.323659286580735397e+03
