# uv,model,feather,feather_ratio,feather_ratio_err,smclean,smclean_ratio,smclean_ratio_err,int,int_ratio,int_ratio_err,joint,joint_ratio,joint_ratio_err,tp2vis,tp2vis_ratio,tp2vis_ratio_err,
0.000000000000000000e+00,6.259408473968505859e+00,6.247977733612060547e+00,9.981738305777640985e-01,1.599055123753854724e-01,6.312170505523681641e+00,1.008429236049157351e+00,1.590890057058518547e-01,6.309264183044433594e+00,1.007964923408220859e+00,1.591257927211637835e-01,6.258721351623535156e+00,9.998901933410068166e-01,1.597682743241090053e-01,2.834604680538177490e-02,4.450125688436796373e-03,3.180785753311888286e-01
4.604125136414334634e+02,5.800258398056030273e+00,5.808285653591156006e+00,1.001383947918219608e+00,1.722868941274518784e-01,5.764077544212341309e+00,9.937621996537577829e-01,1.729455119588730327e-01,5.764704346656799316e+00,9.938702642263065323e-01,1.729361385893216918e-01,5.774857342243194580e+00,9.956206909895009005e-01,1.727844511856095056e-01,5.318006157875061035e+00,9.009787855367674680e-01,1.798841887543582985e-01
9.208250272828669267e+02,4.752556294202804565e+00,4.732435852289199829e+00,9.957663958787510428e-01,2.108594260396614017e-01,4.712088227272033691e+00,9.914849894613275705e-01,2.113127434910093971e-01,4.712113976478576660e+00,9.914904074311419180e-01,2.113121686019407142e-01,4.714115500450134277e+00,9.919114724156028462e-01,2.112674858718104343e-01,4.771616667509078979e+00,9.866232556821233901e-01,2.099919865000559882e-01
1.381237540924300447e+03,3.634449148178100497e+00,3.605782842636108487e+00,9.921126133911210010e-01,2.762342425681152402e-01,3.601190495491027654e+00,9.908490526814098809e-01,2.764095641150279836e-01,3.600940740108490079e+00,9.907803337717883130e-01,2.764191053805973852e-01,3.602046799659729182e+00,9.910845665590075626e-01,2.763768475540799852e-01,3.696600282192230136e+00,9.994865781108549507e-01,2.728122377288307865e-01
1.841650054565733853e+03,2.647727439800898086e+00,2.620888153711954605e+00,9.898632745631242846e-01,3.796063623359735018e-01,2.621469666560491074e+00,9.900829017195283965e-01,3.795644686712217886e-01,2.621508151292800903e+00,9.900974367248054353e-01,3.795616964594429876e-01,2.620966444412867080e+00,9.898926927229174666e-01,3.796006986324739207e-01,2.633729120095571030e+00,9.774867972888930945e-01,3.786834138117393667e-01
2.302062568207167260e+03,1.985680733621120408e+00,1.968768973648548082e+00,9.914831424376406854e-01,5.057593718598309973e-01,1.968429931998252780e+00,9.913123991532067913e-01,5.058027377407049441e-01,1.968432427942752749e+00,9.913136561249130674e-01,5.058024184641668475e-01,1.968660356104373843e+00,9.914282090915618184e-01,5.057732125607852236e-01,2.014567139744758428e+00,9.969775859360264780e-01,4.999690177491838416e-01
2.762475081848600894e+03,1.668452325794431923e+00,1.653436981141567230e+00,9.910004353011914180e-01,6.020670212652973197e-01,1.653607179721196418e+00,9.911024451560719317e-01,6.020361756553103127e-01,1.653591391940911537e+00,9.910929826260127529e-01,6.020390367901032880e-01,1.653517787655194526e+00,9.910485412162909347e-01,6.020522863396104984e-01,1.666165957020388610e+00,9.813355364465049524e-01,5.997687982181152400e-01
3.222887595490034073e+03,1.696502277006705528e+00,1.680142969513932938e+00,9.903570377036942096e-01,5.923038560419811027e-01,1.680083361764748817e+00,9.903219020307322262e-01,5.923143121368262820e-01,1.680096281692385674e+00,9.903295176571962344e-01,5.923120457560534513e-01,1.680096837381521935e+00,9.903294250115801667e-01,5.923118316330325817e-01,1.707004861285289055e+00,9.887656759886179758e-01,5.876291480333647455e-01
3.683300109131467707e+03,1.684976591595581663e+00,1.669362327882221830e+00,9.907332459149631454e-01,5.962426719573572509e-01,1.669436170586517942e+00,9.907770700871589842e-01,5.962295465090491353e-01,1.669372645871979755e+00,9.907393694360906444e-01,5.962408379128535385e-01,1.669376080589634936e+00,9.907408864339204424e-01,5.962400794382872737e-01,1.683563387819698942e+00,9.818579743254102210e-01,5.937290375716914870e-01
4.143712622772901341e+03,1.701692847268921893e+00,1.686711376266819995e+00,9.911961368197874656e-01,5.902483493876164999e-01,1.686764172145298613e+00,9.912271623239277130e-01,5.902391526706601832e-01,1.686714425683021545e+00,9.911979288095736917e-01,5.902478181902913734e-01,1.686745390295982361e+00,9.912154880129653289e-01,5.902422433644831656e-01,1.702613315411976469e+00,9.832137037247462574e-01,5.874912256496330754e-01
4.604125136414334520e+03,1.606325918260742558e+00,1.590757646981407536e+00,9.903081491107410539e-01,6.255701357773293392e-01,1.590739171294605070e+00,9.902966472812602117e-01,6.255737509173336930e-01,1.590750944965025893e+00,9.903039768463796078e-01,6.255714471569042701e-01,1.590721600195940777e+00,9.902849216621142370e-01,6.255769494883681725e-01,1.599991756327012071e+00,9.788071859865566937e-01,6.237685104789704171e-01
5.064537650055767699e+03,1.548166853375732899e+00,1.533362885471433401e+00,9.904377439214514522e-01,6.490282974676796490e-01,1.533410220406949520e+00,9.904683187496187147e-01,6.490183279904044866e-01,1.533368922770023346e+00,9.904416435648114581e-01,6.490270259011915455e-01,1.533387764357030392e+00,9.904528987852726507e-01,6.490227668517680737e-01,1.540438467171043158e+00,9.777766484457330876e-01,6.475414604433628041e-01
5.524950163697201788e+03,1.334181291237473532e+00,1.321841087192296982e+00,9.907507292103227003e-01,7.530057036576596197e-01,1.321812202408909842e+00,9.907290793913837712e-01,7.530138928368467210e-01,1.321840269863605588e+00,9.907501166034029527e-01,7.530059353776031861e-01,1.321839701756835073e+00,9.907486103059202076e-01,7.530056961589763898e-01,1.323975474759936377e+00,9.751651332332316180e-01,7.524010718944741383e-01
5.985362677338634967e+03,1.086777555067901968e+00,1.076190925567694245e+00,9.902586969607167777e-01,9.246551754708383086e-01,1.076175242662429810e+00,9.902442663118767863e-01,9.246618798610287682e-01,1.076187288955501975e+00,9.902553507265446919e-01,9.246567301018784324e-01,1.076141114630128959e+00,9.902116380211009039e-01,9.246759099117545233e-01,1.076829591685015242e+00,9.736870456890167613e-01,9.243822303885184111e-01
6.445775190980068146e+03,9.535462592135776072e-01,9.442451301623474569e-01,9.902457495256694608e-01,1.053856609949993306e+00,9.443051513623107462e-01,9.903086947675844298e-01,1.053823280818973807e+00,9.442538927224549683e-01,9.902549389698341864e-01,1.053851744062570983e+00,9.442595057189464569e-01,9.902593654823959035e-01,1.053847863646408145e+00,9.411134892566637156e-01,9.698695009021760516e-01,1.055598506072032761e+00
6.906187704621502235e+03,8.096679222459594039e-01,8.024054390843957663e-01,9.910302940723918486e-01,1.240638328239299648e+00,8.023785535478964448e-01,9.909970884386245515e-01,1.240659019470946589e+00,8.023950054387872788e-01,9.910174077453907104e-01,1.240646357938651079e+00,8.023413522557044653e-01,9.909495058986094174e-01,1.240686642124620542e+00,7.991653140246247622e-01,9.699352954187401288e-01,1.243136923647956582e+00
7.366600218262935414e+03,6.877897000716378662e-01,6.816555237552771596e-01,9.910813198922260314e-01,1.460445416291276999e+00,6.816487261094152927e-01,9.910714365719885954e-01,1.460452665679457418e+00,6.816600390399495391e-01,9.910878848126835061e-01,1.460440600979977521e+00,6.817099299902716902e-01,9.911585686028203668e-01,1.460386048623261601e+00,6.756974235953142616e-01,9.654052718139964906e-01,1.466827200114083185e+00
7.827012731904368593e+03,5.735423790355180795e-01,5.668194937872989003e-01,9.882783112565726169e-01,1.753829242860655224e+00,5.668193375177937865e-01,9.882780387928266075e-01,1.753829483196703176e+00,5.668290178452072281e-01,9.882949169308112847e-01,1.753814595377111152e+00,5.667893398424674878e-01,9.882237037250323208e-01,1.753873833733700760e+00,5.603961024176458139e-01,9.601579087560225823e-01,1.763764113055729110e+00
8.287425245545802682e+03,2.583083362008134487e-01,4.305715320321421014e-01,1.666889804506379580e+00,2.903263823241338581e+00,4.305472652427851932e-01,1.666795859457165019e+00,2.903366098509911897e+00,4.305543394759297482e-01,1.666823246235495937e+00,2.903336282569217275e+00,4.305956527280310753e-01,1.666979224618236222e+00,2.903159620536862828e+00,4.247018489986658096e-01,1.615692840591617996e+00,2.928214019847862559e+00
8.747837759187235861e+03,1.936566211283206884e-01,3.711945343452195401e-01,1.916766554029974090e+00,3.540755791361194227e+00,3.711908069439232571e-01,1.916747306553308716e+00,3.540779156640153857e+00,3.712117889585594410e-01,1.916855653040580476e+00,3.540647634539145105e+00,3.712043684907257446e-01,1.916812256227468092e+00,3.540690970030812235e+00,3.640423002031942246e-01,1.847279329098491907e+00,3.586164368446273620e+00
9.208250272828669040e+03,1.214432979543362962e-01,3.153385171786912133e-01,2.596590528176047741e+00,4.578945209499791780e+00,3.153223605646240935e-01,2.596457489841785815e+00,4.579114591522259303e+00,3.153234937738987886e-01,2.596466821021799820e+00,4.579102710822482436e+00,3.153384522865376183e-01,2.596582475391501887e+00,4.578942244577965504e+00,3.086595412704252195e-01,2.497578945900073677e+00,4.650050679983648294e+00
9.668662786470102219e+03,4.721699484313527512e-02,2.510058491930572400e-01,5.316006451214253303e+00,6.706394362456279623e+00,2.510099591066439761e-01,5.316093494313890666e+00,6.706301940557644059e+00,2.510178467491641641e-01,5.316260545235839352e+00,6.706124573915782427e+00,2.510238273276222953e-01,5.316370280312152197e+00,6.705986751112433808e+00,2.440841694220176050e-01,5.079890389658087813e+00,6.865746675078605143e+00
1.012907530011153540e+04,2.359478101682136938e-02,1.886436823508976235e-01,7.995144443866986528e+00,9.423362609513670662e+00,1.886426852331222759e-01,7.995102183768254100e+00,9.423406881632667265e+00,1.886306444511693936e-01,7.994591868290253700e+00,9.423941526278873937e+00,1.886484140995889902e-01,7.995318505880004700e+00,9.423149089521590582e+00,1.833874754169408094e-01,7.637773792330846412e+00,9.662664010236229117e+00
1.058948781375297040e+04,3.731607845319168896e-03,1.421836289843278200e-01,3.810251100277839953e+01,1.370658776598470219e+01,1.422073643787631070e-01,3.810887163750186346e+01,1.370435853782152158e+01,1.421969841367431986e-01,3.810608992987067722e+01,1.370533336089367005e+01,1.421817471938473798e-01,3.810187738215532249e+01,1.370676335620365016e+01,1.368560318302895207e-01,3.603968751912289292e+01,1.422600169271488824e+01
1.104990032739440358e+04,6.987395708596235485e-04,9.529911015813827269e-02,1.363871664530128953e+02,2.083379998245797893e+01,9.528838202516597133e-02,1.363718129029640522e+02,2.083612850083433798e+01,9.528641361593097325e-02,1.363689958172899424e+02,2.083655579637329325e+01,9.530214621305563294e-02,1.363911016472847848e+02,2.083314065694480632e+01,9.236284782405403126e-02,1.298957814907588215e+02,2.149114426248559084e+01
1.151031284103583675e+04,0.000000000000000000e+00,7.450600891994933750e-02,inf,2.684347247949944304e+01,7.441896685798253530e-02,inf,2.687486919586912393e+01,7.451694291861106489e-02,inf,2.683953369080694884e+01,7.449083124464821182e-02,inf,2.684894189771429041e+01,7.081000384364631584e-02,inf,2.824459668744188789e+01
1.197072535467726993e+04,0.000000000000000000e+00,5.534372986453077459e-02,inf,3.613778841606010417e+01,5.518752517210404052e-02,inf,3.624007407041603557e+01,5.533380863859995585e-02,inf,3.614426783926152353e+01,5.533660368448842931e-02,inf,3.614244219618823450e+01,5.344543421498118563e-02,inf,3.742134439314526162e+01
1.243113786831870311e+04,0.000000000000000000e+00,4.678592630150932297e-02,inf,4.274789788516979172e+01,4.643043937309213748e-02,inf,4.307519004782584915e+01,4.679564744370376395e-02,inf,4.273901760641405190e+01,4.679154116012973486e-02,inf,4.274276825282612435e+01,4.402276738859122601e-02,inf,4.543103758893432342e+01
1.289155038196013629e+04,0.000000000000000000e+00,3.777226988902492727e-02,inf,5.294889626374077096e+01,3.749113903281146160e-02,inf,5.334593857630310509e+01,3.776083143782757445e-02,inf,5.296493545945773462e+01,3.779978911431195604e-02,inf,5.291034809616832746e+01,3.649066087867443992e-02,inf,5.480854420942600314e+01
1.335196289560157129e+04,0.000000000000000000e+00,2.982499297710698369e-02,inf,6.705785317485762675e+01,2.968491050220715619e-02,inf,6.737429778847722162e+01,2.983548540275175395e-02,inf,6.703427053395746782e+01,2.978359018682870743e-02,inf,6.715107169599944825e+01,2.816817188916805395e-02,inf,7.100212281681976378e+01
1.381237540924300447e+04,0.000000000000000000e+00,2.503933111190835559e-02,inf,7.987433813872240762e+01,2.408155678038267217e-02,inf,8.305110912219930697e+01,2.502661142337254951e-02,inf,7.991493399430753186e+01,2.498587170254161841e-02,inf,8.004523611623906731e+01,2.385330303258478141e-02,inf,8.384583037694619634e+01
1.427278792288443765e+04,0.000000000000000000e+00,2.106124926621515125e-02,inf,9.496112859782954274e+01,1.939893457053515693e-02,inf,1.030984455732831577e+02,2.107340689830240060e-02,inf,9.490634379394596465e+01,2.096890465649126761e-02,inf,9.537932632932580646e+01,1.920342568659039878e-02,inf,1.041480844429014638e+02
1.473320043652587083e+04,0.000000000000000000e+00,1.726856352486566895e-02,inf,1.158173925190779840e+02,1.557917935229874429e-02,inf,1.283764667427681445e+02,1.726071558954002730e-02,inf,1.158700512516409020e+02,1.714182511857936450e-02,inf,1.166736905880737822e+02,1.607920337951930165e-02,inf,1.243842715832226276e+02
1.519361295016730401e+04,0.000000000000000000e+00,1.046381129822293587e-02,inf,1.911349452889750751e+02,9.919781134840377490e-03,inf,2.016173515134900924e+02,1.046392780017413315e-02,inf,1.911328172549812052e+02,1.042228148617141414e-02,inf,1.918965634015602291e+02,9.687432514624561009e-03,inf,2.064530511031395292e+02
1.565402546380873719e+04,0.000000000000000000e+00,7.737715116579032930e-03,inf,2.584742355937539173e+02,7.209744865136717175e-03,inf,2.774023266303299806e+02,7.737780973735836412e-03,inf,2.584720356893729445e+02,7.698320536174804024e-03,inf,2.597969246151673133e+02,7.237349136689332288e-03,inf,2.763442749861428069e+02
1.611443797745017037e+04,0.000000000000000000e+00,5.546793612232986045e-03,inf,3.605686708063499282e+02,5.359333428454452451e-03,inf,3.731807372501487521e+02,5.546781919076151750e-03,inf,3.605694309202463614e+02,5.532851769766282055e-03,inf,3.614772423379930615e+02,5.100067505953207077e-03,inf,3.921516720446228987e+02
1.657485049109160536e+04,0.000000000000000000e+00,3.768377872683745418e-03,inf,5.307323383086445574e+02,3.671893131547182294e-03,inf,5.446781614685183968e+02,3.768537746825883009e-03,inf,5.307098228442941945e+02,3.762693595490418375e-03,inf,5.315341122638836850e+02,3.440623988432850184e-03,inf,5.812899075062742895e+02
1.703526300473303854e+04,0.000000000000000000e+00,2.953308312953595305e-03,inf,6.772066401695140030e+02,2.766282251059237751e-03,inf,7.229920226810476152e+02,2.953084556793328375e-03,inf,6.772579523329815174e+02,2.930233889856026508e-03,inf,6.825393723428226167e+02,2.520856686260231072e-03,inf,7.933810798927494261e+02
1.749567551837447172e+04,0.000000000000000000e+00,1.821855469803695558e-03,inf,1.097781922413142638e+03,1.654720854811089683e-03,inf,1.208663077028982570e+03,1.821768509484279720e-03,inf,1.097834323948312885e+03,1.809340648084317325e-03,inf,1.105375044836110874e+03,1.561323265966219629e-03,inf,1.280964707050789229e+03
1.795608803201590490e+04,0.000000000000000000e+00,1.292844543324160210e-03,inf,1.546976402017834744e+03,1.193634806554655370e-03,inf,1.675554356338570869e+03,1.292810344011741108e-03,inf,1.547017324903022427e+03,1.291989312676378177e-03,inf,1.548000421038286731e+03,1.153664231272462761e-03,inf,1.733606664561360276e+03
1.841650054565733808e+04,0.000000000000000000e+00,9.169905395083333133e-04,inf,2.181047583187007149e+03,8.481900379138096469e-04,inf,2.357962143624272812e+03,9.172529451006994350e-04,inf,2.180423634159531048e+03,9.219298779044038383e-04,inf,2.169362386373796198e+03,8.371907722448668210e-04,inf,2.388941763699979674e+03
1.887691305929877126e+04,0.000000000000000000e+00,5.847490617518567423e-04,inf,3.420270558465157592e+03,5.870137209223520334e-04,inf,3.407075386342719867e+03,5.847030181691727658e-04,inf,3.420539894359392292e+03,5.830066261709857846e-04,inf,3.430492742656126211e+03,5.075566487820734650e-04,inf,3.940446854157412417e+03
1.933732557294020444e+04,0.000000000000000000e+00,5.390346286731073633e-04,inf,3.710336764306253372e+03,5.735935192205943167e-04,inf,3.486789743924623963e+03,5.385246367950458080e-04,inf,3.713850515554350295e+03,5.045662683187401854e-04,inf,3.963800447192354568e+03,4.288631207600701600e-04,inf,4.663492623136768088e+03
1.979773808658163762e+04,0.000000000000000000e+00,4.702330494183115878e-04,inf,4.253210195400010889e+03,4.757591828820295849e-04,inf,4.203807455453623334e+03,4.701320736785419502e-04,inf,4.254123706878851408e+03,4.738231480587273945e-04,inf,4.220984154518580908e+03,4.146525432588532675e-04,inf,4.823315405909542278e+03
2.025815060022307080e+04,0.000000000000000000e+00,4.226190358167514205e-04,inf,4.732394498356681652e+03,4.105713887838646770e-04,inf,4.871260040608556665e+03,4.230681297485716641e-04,inf,4.727370982041580646e+03,4.526111079030670226e-04,inf,4.418804499222162121e+03,4.248161276336759329e-04,inf,4.707919191157978275e+03
2.071856311386450761e+04,0.000000000000000000e+00,4.739891737699508667e-04,inf,4.219505656833194735e+03,4.979174118489027023e-04,inf,4.016730390233706203e+03,4.753270186483860016e-04,inf,4.207629529848925813e+03,4.230360500514507294e-04,inf,4.727729468343784902e+03,2.922778949141502380e-04,inf,6.842802807880674663e+03
